project_1/project_1.sim/sim_1/behav/xsim/simulate.log
Vivado Simulator 2018.2
Time resolution is 1 ps
Iteration           0
                   0	sw:0000	pwm:001	t:         50	pdc: 0	t_high:         50	t_low:        100	duty:33
                  70	sw:0000	pwm:001	t:         50	pdc:x	t_high:         50	t_low:        100	duty:33
                1000	sw:0000	pwm:000	t:         50	pdc:x	t_high:         50	t_low:        100	duty:33
                3000	sw:0000	pwm:001	t:         50	pdc:x	t_high:         50	t_low:        100	duty:33
                3030	sw:0000	pwm:001	t:         50	pdc:32	t_high:         50	t_low:        100	duty:33
                4000	sw:0000	pwm:000	t:         50	pdc:32	t_high:         50	t_low:        100	duty:33
                6000	sw:0000	pwm:001	t:         50	pdc:32	t_high:         50	t_low:        100	duty:33
                6030	sw:0000	pwm:001	t:         50	pdc:33	t_high:         50	t_low:        100	duty:33
                7000	sw:0000	pwm:000	t:         50	pdc:33	t_high:         50	t_low:        100	duty:33
                9000	sw:0000	pwm:001	t:         50	pdc:33	t_high:         50	t_low:        100	duty:33
               10000	sw:0000	pwm:000	t:         50	pdc:33	t_high:         50	t_low:        100	duty:33
               12000	sw:0000	pwm:001	t:         50	pdc:33	t_high:         50	t_low:        100	duty:33
               13000	sw:0000	pwm:000	t:         50	pdc:33	t_high:         50	t_low:        100	duty:33
               15000	sw:0000	pwm:001	t:         50	pdc:33	t_high:         50	t_low:        100	duty:33
               16000	sw:0000	pwm:000	t:         50	pdc:33	t_high:         50	t_low:        100	duty:33
               18000	sw:0000	pwm:001	t:         50	pdc:33	t_high:         50	t_low:        100	duty:33
               19000	sw:0000	pwm:000	t:         50	pdc:33	t_high:         50	t_low:        100	duty:33
               21000	sw:0000	pwm:001	t:         50	pdc:33	t_high:         50	t_low:        100	duty:33
               22000	sw:0000	pwm:000	t:         50	pdc:33	t_high:         50	t_low:        100	duty:33
               24000	sw:0100	pwm:010	t:         50	pdc:33	t_high:         50	t_low:        200	duty:20
               25000	sw:0100	pwm:000	t:         50	pdc:33	t_high:         50	t_low:        200	duty:20
               29000	sw:0100	pwm:010	t:         50	pdc:33	t_high:         50	t_low:        200	duty:20
               29030	sw:0100	pwm:010	t:         50	pdc: 0	t_high:         50	t_low:        200	duty:20
               30000	sw:0100	pwm:000	t:         50	pdc: 0	t_high:         50	t_low:        200	duty:20
               34000	sw:0100	pwm:010	t:         50	pdc: 0	t_high:         50	t_low:        200	duty:20
               34030	sw:0100	pwm:010	t:         50	pdc:20	t_high:         50	t_low:        200	duty:20
               35000	sw:0100	pwm:000	t:         50	pdc:20	t_high:         50	t_low:        200	duty:20
               39000	sw:0100	pwm:010	t:         50	pdc:20	t_high:         50	t_low:        200	duty:20
               40000	sw:0100	pwm:000	t:         50	pdc:20	t_high:         50	t_low:        200	duty:20
               44000	sw:0100	pwm:010	t:         50	pdc:20	t_high:         50	t_low:        200	duty:20
               45000	sw:0100	pwm:000	t:         50	pdc:20	t_high:         50	t_low:        200	duty:20
               49000	sw:0100	pwm:010	t:         50	pdc:20	t_high:         50	t_low:        200	duty:20
               50000	sw:0100	pwm:000	t:         50	pdc:20	t_high:         50	t_low:        200	duty:20
               54000	sw:0100	pwm:010	t:         50	pdc:20	t_high:         50	t_low:        200	duty:20
               55000	sw:0100	pwm:000	t:         50	pdc:20	t_high:         50	t_low:        200	duty:20
               59000	sw:0100	pwm:010	t:         50	pdc:20	t_high:         50	t_low:        200	duty:20
               60000	sw:0100	pwm:000	t:         50	pdc:20	t_high:         50	t_low:        200	duty:20
               64000	sw:1000	pwm:100	t:         50	pdc:20	t_high:         50	t_low:        150	duty:25
               65000	sw:1000	pwm:000	t:         50	pdc:20	t_high:         50	t_low:        150	duty:25
               68000	sw:1000	pwm:100	t:         50	pdc:20	t_high:         50	t_low:        150	duty:25
               68030	sw:1000	pwm:100	t:         50	pdc: 0	t_high:         50	t_low:        150	duty:25
               69000	sw:1000	pwm:000	t:         50	pdc: 0	t_high:         50	t_low:        150	duty:25
               72000	sw:1000	pwm:100	t:         50	pdc: 0	t_high:         50	t_low:        150	duty:25
               72030	sw:1000	pwm:100	t:         50	pdc:25	t_high:         50	t_low:        150	duty:25
               73000	sw:1000	pwm:000	t:         50	pdc:25	t_high:         50	t_low:        150	duty:25
               76000	sw:1000	pwm:100	t:         50	pdc:25	t_high:         50	t_low:        150	duty:25
               77000	sw:1000	pwm:000	t:         50	pdc:25	t_high:         50	t_low:        150	duty:25
               80000	sw:1000	pwm:100	t:         50	pdc:25	t_high:         50	t_low:        150	duty:25
               81000	sw:1000	pwm:000	t:         50	pdc:25	t_high:         50	t_low:        150	duty:25
               84000	sw:1000	pwm:100	t:         50	pdc:25	t_high:         50	t_low:        150	duty:25
               85000	sw:1000	pwm:000	t:         50	pdc:25	t_high:         50	t_low:        150	duty:25
               88000	sw:1000	pwm:100	t:         50	pdc:25	t_high:         50	t_low:        150	duty:25
               89000	sw:1000	pwm:000	t:         50	pdc:25	t_high:         50	t_low:        150	duty:25
               92000	sw:1000	pwm:100	t:         50	pdc:25	t_high:         50	t_low:        150	duty:25
               93000	sw:1000	pwm:000	t:         50	pdc:25	t_high:         50	t_low:        150	duty:25
Iteration           1
               96000	sw:0000	pwm:001	t:         10	pdc:25	t_high:         10	t_low:         20	duty:33
               96200	sw:0000	pwm:000	t:         10	pdc:25	t_high:         10	t_low:         20	duty:33
               96600	sw:0000	pwm:001	t:         10	pdc:25	t_high:         10	t_low:         20	duty:33
               96630	sw:0000	pwm:001	t:         10	pdc: 0	t_high:         10	t_low:         20	duty:33
               96800	sw:0000	pwm:000	t:         10	pdc: 0	t_high:         10	t_low:         20	duty:33
               97200	sw:0000	pwm:001	t:         10	pdc: 0	t_high:         10	t_low:         20	duty:33
               97230	sw:0000	pwm:001	t:         10	pdc:34	t_high:         10	t_low:         20	duty:33
               97400	sw:0000	pwm:000	t:         10	pdc:34	t_high:         10	t_low:         20	duty:33
               97800	sw:0000	pwm:001	t:         10	pdc:34	t_high:         10	t_low:         20	duty:33
               98000	sw:0000	pwm:000	t:         10	pdc:34	t_high:         10	t_low:         20	duty:33
               98400	sw:0000	pwm:001	t:         10	pdc:34	t_high:         10	t_low:         20	duty:33
               98600	sw:0000	pwm:000	t:         10	pdc:34	t_high:         10	t_low:         20	duty:33
               99000	sw:0000	pwm:001	t:         10	pdc:34	t_high:         10	t_low:         20	duty:33
               99200	sw:0000	pwm:000	t:         10	pdc:34	t_high:         10	t_low:         20	duty:33
               99600	sw:0000	pwm:001	t:         10	pdc:34	t_high:         10	t_low:         20	duty:33
               99800	sw:0000	pwm:000	t:         10	pdc:34	t_high:         10	t_low:         20	duty:33
              100200	sw:0000	pwm:001	t:         10	pdc:34	t_high:         10	t_low:         20	duty:33
              100400	sw:0000	pwm:000	t:         10	pdc:34	t_high:         10	t_low:         20	duty:33
              100800	sw:0100	pwm:010	t:         10	pdc:34	t_high:         10	t_low:         40	duty:20
              101000	sw:0100	pwm:000	t:         10	pdc:34	t_high:         10	t_low:         40	duty:20
              101800	sw:0100	pwm:010	t:         10	pdc:34	t_high:         10	t_low:         40	duty:20
              101830	sw:0100	pwm:010	t:         10	pdc: 0	t_high:         10	t_low:         40	duty:20
              102000	sw:0100	pwm:000	t:         10	pdc: 0	t_high:         10	t_low:         40	duty:20
              102800	sw:0100	pwm:010	t:         10	pdc: 0	t_high:         10	t_low:         40	duty:20
              102830	sw:0100	pwm:010	t:         10	pdc:20	t_high:         10	t_low:         40	duty:20
              103000	sw:0100	pwm:000	t:         10	pdc:20	t_high:         10	t_low:         40	duty:20
              103800	sw:0100	pwm:010	t:         10	pdc:20	t_high:         10	t_low:         40	duty:20
              104000	sw:0100	pwm:000	t:         10	pdc:20	t_high:         10	t_low:         40	duty:20
              104800	sw:0100	pwm:010	t:         10	pdc:20	t_high:         10	t_low:         40	duty:20
              105000	sw:0100	pwm:000	t:         10	pdc:20	t_high:         10	t_low:         40	duty:20
              105800	sw:0100	pwm:010	t:         10	pdc:20	t_high:         10	t_low:         40	duty:20
              106000	sw:0100	pwm:000	t:         10	pdc:20	t_high:         10	t_low:         40	duty:20
              106800	sw:0100	pwm:010	t:         10	pdc:20	t_high:         10	t_low:         40	duty:20
              107000	sw:0100	pwm:000	t:         10	pdc:20	t_high:         10	t_low:         40	duty:20
              107800	sw:0100	pwm:010	t:         10	pdc:20	t_high:         10	t_low:         40	duty:20
              108000	sw:0100	pwm:000	t:         10	pdc:20	t_high:         10	t_low:         40	duty:20
              108800	sw:1000	pwm:100	t:         10	pdc:20	t_high:         10	t_low:         30	duty:25
              109000	sw:1000	pwm:000	t:         10	pdc:20	t_high:         10	t_low:         30	duty:25
              109600	sw:1000	pwm:100	t:         10	pdc:20	t_high:         10	t_low:         30	duty:25
              109630	sw:1000	pwm:100	t:         10	pdc: 0	t_high:         10	t_low:         30	duty:25
              109800	sw:1000	pwm:000	t:         10	pdc: 0	t_high:         10	t_low:         30	duty:25
              110400	sw:1000	pwm:100	t:         10	pdc: 0	t_high:         10	t_low:         30	duty:25
              110430	sw:1000	pwm:100	t:         10	pdc:25	t_high:         10	t_low:         30	duty:25
              110600	sw:1000	pwm:000	t:         10	pdc:25	t_high:         10	t_low:         30	duty:25
              111200	sw:1000	pwm:100	t:         10	pdc:25	t_high:         10	t_low:         30	duty:25
              111400	sw:1000	pwm:000	t:         10	pdc:25	t_high:         10	t_low:         30	duty:25
              112000	sw:1000	pwm:100	t:         10	pdc:25	t_high:         10	t_low:         30	duty:25
              112200	sw:1000	pwm:000	t:         10	pdc:25	t_high:         10	t_low:         30	duty:25
              112800	sw:1000	pwm:100	t:         10	pdc:25	t_high:         10	t_low:         30	duty:25
              113000	sw:1000	pwm:000	t:         10	pdc:25	t_high:         10	t_low:         30	duty:25
              113600	sw:1000	pwm:100	t:         10	pdc:25	t_high:         10	t_low:         30	duty:25
              113800	sw:1000	pwm:000	t:         10	pdc:25	t_high:         10	t_low:         30	duty:25
              114400	sw:1000	pwm:100	t:         10	pdc:25	t_high:         10	t_low:         30	duty:25
              114600	sw:1000	pwm:000	t:         10	pdc:25	t_high:         10	t_low:         30	duty:25
Iteration           2
              115200	sw:0000	pwm:001	t:         20	pdc:25	t_high:         20	t_low:         40	duty:33
              115600	sw:0000	pwm:000	t:         20	pdc:25	t_high:         20	t_low:         40	duty:33
              116400	sw:0000	pwm:001	t:         20	pdc:25	t_high:         20	t_low:         40	duty:33
              116430	sw:0000	pwm:001	t:         20	pdc: 0	t_high:         20	t_low:         40	duty:33
              116800	sw:0000	pwm:000	t:         20	pdc: 0	t_high:         20	t_low:         40	duty:33
              117600	sw:0000	pwm:001	t:         20	pdc: 0	t_high:         20	t_low:         40	duty:33
              117630	sw:0000	pwm:001	t:         20	pdc:33	t_high:         20	t_low:         40	duty:33
              118000	sw:0000	pwm:000	t:         20	pdc:33	t_high:         20	t_low:         40	duty:33
              118800	sw:0000	pwm:001	t:         20	pdc:33	t_high:         20	t_low:         40	duty:33
              119200	sw:0000	pwm:000	t:         20	pdc:33	t_high:         20	t_low:         40	duty:33
              120000	sw:0000	pwm:001	t:         20	pdc:33	t_high:         20	t_low:         40	duty:33
              120400	sw:0000	pwm:000	t:         20	pdc:33	t_high:         20	t_low:         40	duty:33
              121200	sw:0000	pwm:001	t:         20	pdc:33	t_high:         20	t_low:         40	duty:33
              121600	sw:0000	pwm:000	t:         20	pdc:33	t_high:         20	t_low:         40	duty:33
              122400	sw:0000	pwm:001	t:         20	pdc:33	t_high:         20	t_low:         40	duty:33
              122800	sw:0000	pwm:000	t:         20	pdc:33	t_high:         20	t_low:         40	duty:33
              123600	sw:0000	pwm:001	t:         20	pdc:33	t_high:         20	t_low:         40	duty:33
              124000	sw:0000	pwm:000	t:         20	pdc:33	t_high:         20	t_low:         40	duty:33
              124800	sw:0100	pwm:010	t:         20	pdc:33	t_high:         20	t_low:         80	duty:20
              125200	sw:0100	pwm:000	t:         20	pdc:33	t_high:         20	t_low:         80	duty:20
              126800	sw:0100	pwm:010	t:         20	pdc:33	t_high:         20	t_low:         80	duty:20
              126830	sw:0100	pwm:010	t:         20	pdc: 0	t_high:         20	t_low:         80	duty:20
              127200	sw:0100	pwm:000	t:         20	pdc: 0	t_high:         20	t_low:         80	duty:20
              128800	sw:0100	pwm:010	t:         20	pdc: 0	t_high:         20	t_low:         80	duty:20
              128830	sw:0100	pwm:010	t:         20	pdc:20	t_high:         20	t_low:         80	duty:20
              129200	sw:0100	pwm:000	t:         20	pdc:20	t_high:         20	t_low:         80	duty:20
              130800	sw:0100	pwm:010	t:         20	pdc:20	t_high:         20	t_low:         80	duty:20
              131200	sw:0100	pwm:000	t:         20	pdc:20	t_high:         20	t_low:         80	duty:20
              132800	sw:0100	pwm:010	t:         20	pdc:20	t_high:         20	t_low:         80	duty:20
              133200	sw:0100	pwm:000	t:         20	pdc:20	t_high:         20	t_low:         80	duty:20
              134800	sw:0100	pwm:010	t:         20	pdc:20	t_high:         20	t_low:         80	duty:20
              135200	sw:0100	pwm:000	t:         20	pdc:20	t_high:         20	t_low:         80	duty:20
              136800	sw:0100	pwm:010	t:         20	pdc:20	t_high:         20	t_low:         80	duty:20
              137200	sw:0100	pwm:000	t:         20	pdc:20	t_high:         20	t_low:         80	duty:20
              138800	sw:0100	pwm:010	t:         20	pdc:20	t_high:         20	t_low:         80	duty:20
              139200	sw:0100	pwm:000	t:         20	pdc:20	t_high:         20	t_low:         80	duty:20
              140800	sw:1000	pwm:100	t:         20	pdc:20	t_high:         20	t_low:         60	duty:25
              141200	sw:1000	pwm:000	t:         20	pdc:20	t_high:         20	t_low:         60	duty:25
              142400	sw:1000	pwm:100	t:         20	pdc:20	t_high:         20	t_low:         60	duty:25
              142430	sw:1000	pwm:100	t:         20	pdc: 0	t_high:         20	t_low:         60	duty:25
              142800	sw:1000	pwm:000	t:         20	pdc: 0	t_high:         20	t_low:         60	duty:25
              144000	sw:1000	pwm:100	t:         20	pdc: 0	t_high:         20	t_low:         60	duty:25
              144030	sw:1000	pwm:100	t:         20	pdc:25	t_high:         20	t_low:         60	duty:25
              144400	sw:1000	pwm:000	t:         20	pdc:25	t_high:         20	t_low:         60	duty:25
              145600	sw:1000	pwm:100	t:         20	pdc:25	t_high:         20	t_low:         60	duty:25
              146000	sw:1000	pwm:000	t:         20	pdc:25	t_high:         20	t_low:         60	duty:25
              147200	sw:1000	pwm:100	t:         20	pdc:25	t_high:         20	t_low:         60	duty:25
              147600	sw:1000	pwm:000	t:         20	pdc:25	t_high:         20	t_low:         60	duty:25
              148800	sw:1000	pwm:100	t:         20	pdc:25	t_high:         20	t_low:         60	duty:25
              149200	sw:1000	pwm:000	t:         20	pdc:25	t_high:         20	t_low:         60	duty:25
              150400	sw:1000	pwm:100	t:         20	pdc:25	t_high:         20	t_low:         60	duty:25
              150800	sw:1000	pwm:000	t:         20	pdc:25	t_high:         20	t_low:         60	duty:25
              152000	sw:1000	pwm:100	t:         20	pdc:25	t_high:         20	t_low:         60	duty:25
              152400	sw:1000	pwm:000	t:         20	pdc:25	t_high:         20	t_low:         60	duty:25
Iteration           3
              153600	sw:0000	pwm:001	t:         10	pdc:25	t_high:         10	t_low:         20	duty:33
              153800	sw:0000	pwm:000	t:         10	pdc:25	t_high:         10	t_low:         20	duty:33
              154200	sw:0000	pwm:001	t:         10	pdc:25	t_high:         10	t_low:         20	duty:33
              154230	sw:0000	pwm:001	t:         10	pdc: 0	t_high:         10	t_low:         20	duty:33
              154400	sw:0000	pwm:000	t:         10	pdc: 0	t_high:         10	t_low:         20	duty:33
              154800	sw:0000	pwm:001	t:         10	pdc: 0	t_high:         10	t_low:         20	duty:33
              154830	sw:0000	pwm:001	t:         10	pdc:34	t_high:         10	t_low:         20	duty:33
              155000	sw:0000	pwm:000	t:         10	pdc:34	t_high:         10	t_low:         20	duty:33
              155400	sw:0000	pwm:001	t:         10	pdc:34	t_high:         10	t_low:         20	duty:33
              155600	sw:0000	pwm:000	t:         10	pdc:34	t_high:         10	t_low:         20	duty:33
              156000	sw:0000	pwm:001	t:         10	pdc:34	t_high:         10	t_low:         20	duty:33
              156200	sw:0000	pwm:000	t:         10	pdc:34	t_high:         10	t_low:         20	duty:33
              156600	sw:0000	pwm:001	t:         10	pdc:34	t_high:         10	t_low:         20	duty:33
              156800	sw:0000	pwm:000	t:         10	pdc:34	t_high:         10	t_low:         20	duty:33
              157200	sw:0000	pwm:001	t:         10	pdc:34	t_high:         10	t_low:         20	duty:33
              157400	sw:0000	pwm:000	t:         10	pdc:34	t_high:         10	t_low:         20	duty:33
              157800	sw:0000	pwm:001	t:         10	pdc:34	t_high:         10	t_low:         20	duty:33
              158000	sw:0000	pwm:000	t:         10	pdc:34	t_high:         10	t_low:         20	duty:33
              158400	sw:0100	pwm:010	t:         10	pdc:34	t_high:         10	t_low:         40	duty:20
              158600	sw:0100	pwm:000	t:         10	pdc:34	t_high:         10	t_low:         40	duty:20
              159400	sw:0100	pwm:010	t:         10	pdc:34	t_high:         10	t_low:         40	duty:20
              159430	sw:0100	pwm:010	t:         10	pdc: 0	t_high:         10	t_low:         40	duty:20
              159600	sw:0100	pwm:000	t:         10	pdc: 0	t_high:         10	t_low:         40	duty:20
              160400	sw:0100	pwm:010	t:         10	pdc: 0	t_high:         10	t_low:         40	duty:20
              160430	sw:0100	pwm:010	t:         10	pdc:20	t_high:         10	t_low:         40	duty:20
              160600	sw:0100	pwm:000	t:         10	pdc:20	t_high:         10	t_low:         40	duty:20
              161400	sw:0100	pwm:010	t:         10	pdc:20	t_high:         10	t_low:         40	duty:20
              161600	sw:0100	pwm:000	t:         10	pdc:20	t_high:         10	t_low:         40	duty:20
              162400	sw:0100	pwm:010	t:         10	pdc:20	t_high:         10	t_low:         40	duty:20
              162600	sw:0100	pwm:000	t:         10	pdc:20	t_high:         10	t_low:         40	duty:20
              163400	sw:0100	pwm:010	t:         10	pdc:20	t_high:         10	t_low:         40	duty:20
              163600	sw:0100	pwm:000	t:         10	pdc:20	t_high:         10	t_low:         40	duty:20
              164400	sw:0100	pwm:010	t:         10	pdc:20	t_high:         10	t_low:         40	duty:20
              164600	sw:0100	pwm:000	t:         10	pdc:20	t_high:         10	t_low:         40	duty:20
              165400	sw:0100	pwm:010	t:         10	pdc:20	t_high:         10	t_low:         40	duty:20
              165600	sw:0100	pwm:000	t:         10	pdc:20	t_high:         10	t_low:         40	duty:20
              166400	sw:1000	pwm:100	t:         10	pdc:20	t_high:         10	t_low:         30	duty:25
              166600	sw:1000	pwm:000	t:         10	pdc:20	t_high:         10	t_low:         30	duty:25
              167200	sw:1000	pwm:100	t:         10	pdc:20	t_high:         10	t_low:         30	duty:25
              167230	sw:1000	pwm:100	t:         10	pdc: 0	t_high:         10	t_low:         30	duty:25
              167400	sw:1000	pwm:000	t:         10	pdc: 0	t_high:         10	t_low:         30	duty:25
              168000	sw:1000	pwm:100	t:         10	pdc: 0	t_high:         10	t_low:         30	duty:25
              168030	sw:1000	pwm:100	t:         10	pdc:25	t_high:         10	t_low:         30	duty:25
              168200	sw:1000	pwm:000	t:         10	pdc:25	t_high:         10	t_low:         30	duty:25
              168800	sw:1000	pwm:100	t:         10	pdc:25	t_high:         10	t_low:         30	duty:25
              169000	sw:1000	pwm:000	t:         10	pdc:25	t_high:         10	t_low:         30	duty:25
              169600	sw:1000	pwm:100	t:         10	pdc:25	t_high:         10	t_low:         30	duty:25
              169800	sw:1000	pwm:000	t:         10	pdc:25	t_high:         10	t_low:         30	duty:25
              170400	sw:1000	pwm:100	t:         10	pdc:25	t_high:         10	t_low:         30	duty:25
              170600	sw:1000	pwm:000	t:         10	pdc:25	t_high:         10	t_low:         30	duty:25
              171200	sw:1000	pwm:100	t:         10	pdc:25	t_high:         10	t_low:         30	duty:25
              171400	sw:1000	pwm:000	t:         10	pdc:25	t_high:         10	t_low:         30	duty:25
              172000	sw:1000	pwm:100	t:         10	pdc:25	t_high:         10	t_low:         30	duty:25
              172200	sw:1000	pwm:000	t:         10	pdc:25	t_high:         10	t_low:         30	duty:25
Iteration           4
              172800	sw:0000	pwm:001	t:         20	pdc:25	t_high:         20	t_low:         40	duty:33
              173200	sw:0000	pwm:000	t:         20	pdc:25	t_high:         20	t_low:         40	duty:33
              174000	sw:0000	pwm:001	t:         20	pdc:25	t_high:         20	t_low:         40	duty:33
              174030	sw:0000	pwm:001	t:         20	pdc: 0	t_high:         20	t_low:         40	duty:33
              174400	sw:0000	pwm:000	t:         20	pdc: 0	t_high:         20	t_low:         40	duty:33
              175200	sw:0000	pwm:001	t:         20	pdc: 0	t_high:         20	t_low:         40	duty:33
              175230	sw:0000	pwm:001	t:         20	pdc:33	t_high:         20	t_low:         40	duty:33
              175600	sw:0000	pwm:000	t:         20	pdc:33	t_high:         20	t_low:         40	duty:33
              176400	sw:0000	pwm:001	t:         20	pdc:33	t_high:         20	t_low:         40	duty:33
              176800	sw:0000	pwm:000	t:         20	pdc:33	t_high:         20	t_low:         40	duty:33
              177600	sw:0000	pwm:001	t:         20	pdc:33	t_high:         20	t_low:         40	duty:33
              178000	sw:0000	pwm:000	t:         20	pdc:33	t_high:         20	t_low:         40	duty:33
              178800	sw:0000	pwm:001	t:         20	pdc:33	t_high:         20	t_low:         40	duty:33
              179200	sw:0000	pwm:000	t:         20	pdc:33	t_high:         20	t_low:         40	duty:33
              180000	sw:0000	pwm:001	t:         20	pdc:33	t_high:         20	t_low:         40	duty:33
              180400	sw:0000	pwm:000	t:         20	pdc:33	t_high:         20	t_low:         40	duty:33
              181200	sw:0000	pwm:001	t:         20	pdc:33	t_high:         20	t_low:         40	duty:33
              181600	sw:0000	pwm:000	t:         20	pdc:33	t_high:         20	t_low:         40	duty:33
              182400	sw:0100	pwm:010	t:         20	pdc:33	t_high:         20	t_low:         80	duty:20
              182800	sw:0100	pwm:000	t:         20	pdc:33	t_high:         20	t_low:         80	duty:20
              184400	sw:0100	pwm:010	t:         20	pdc:33	t_high:         20	t_low:         80	duty:20
              184430	sw:0100	pwm:010	t:         20	pdc: 0	t_high:         20	t_low:         80	duty:20
              184800	sw:0100	pwm:000	t:         20	pdc: 0	t_high:         20	t_low:         80	duty:20
              186400	sw:0100	pwm:010	t:         20	pdc: 0	t_high:         20	t_low:         80	duty:20
              186430	sw:0100	pwm:010	t:         20	pdc:20	t_high:         20	t_low:         80	duty:20
              186800	sw:0100	pwm:000	t:         20	pdc:20	t_high:         20	t_low:         80	duty:20
              188400	sw:0100	pwm:010	t:         20	pdc:20	t_high:         20	t_low:         80	duty:20
              188800	sw:0100	pwm:000	t:         20	pdc:20	t_high:         20	t_low:         80	duty:20
              190400	sw:0100	pwm:010	t:         20	pdc:20	t_high:         20	t_low:         80	duty:20
              190800	sw:0100	pwm:000	t:         20	pdc:20	t_high:         20	t_low:         80	duty:20
              192400	sw:0100	pwm:010	t:         20	pdc:20	t_high:         20	t_low:         80	duty:20
              192800	sw:0100	pwm:000	t:         20	pdc:20	t_high:         20	t_low:         80	duty:20
              194400	sw:0100	pwm:010	t:         20	pdc:20	t_high:         20	t_low:         80	duty:20
              194800	sw:0100	pwm:000	t:         20	pdc:20	t_high:         20	t_low:         80	duty:20
              196400	sw:0100	pwm:010	t:         20	pdc:20	t_high:         20	t_low:         80	duty:20
              196800	sw:0100	pwm:000	t:         20	pdc:20	t_high:         20	t_low:         80	duty:20
              198400	sw:1000	pwm:100	t:         20	pdc:20	t_high:         20	t_low:         60	duty:25
              198800	sw:1000	pwm:000	t:         20	pdc:20	t_high:         20	t_low:         60	duty:25
              200000	sw:1000	pwm:100	t:         20	pdc:20	t_high:         20	t_low:         60	duty:25
              200030	sw:1000	pwm:100	t:         20	pdc: 0	t_high:         20	t_low:         60	duty:25
              200400	sw:1000	pwm:000	t:         20	pdc: 0	t_high:         20	t_low:         60	duty:25
              201600	sw:1000	pwm:100	t:         20	pdc: 0	t_high:         20	t_low:         60	duty:25
              201630	sw:1000	pwm:100	t:         20	pdc:25	t_high:         20	t_low:         60	duty:25
              202000	sw:1000	pwm:000	t:         20	pdc:25	t_high:         20	t_low:         60	duty:25
              203200	sw:1000	pwm:100	t:         20	pdc:25	t_high:         20	t_low:         60	duty:25
              203600	sw:1000	pwm:000	t:         20	pdc:25	t_high:         20	t_low:         60	duty:25
              204800	sw:1000	pwm:100	t:         20	pdc:25	t_high:         20	t_low:         60	duty:25
              205200	sw:1000	pwm:000	t:         20	pdc:25	t_high:         20	t_low:         60	duty:25
              206400	sw:1000	pwm:100	t:         20	pdc:25	t_high:         20	t_low:         60	duty:25
              206800	sw:1000	pwm:000	t:         20	pdc:25	t_high:         20	t_low:         60	duty:25
              208000	sw:1000	pwm:100	t:         20	pdc:25	t_high:         20	t_low:         60	duty:25
              208400	sw:1000	pwm:000	t:         20	pdc:25	t_high:         20	t_low:         60	duty:25
              209600	sw:1000	pwm:100	t:         20	pdc:25	t_high:         20	t_low:         60	duty:25
              210000	sw:1000	pwm:000	t:         20	pdc:25	t_high:         20	t_low:         60	duty:25
Iteration           5
              211200	sw:0000	pwm:001	t:         10	pdc:25	t_high:         10	t_low:         20	duty:33
              211400	sw:0000	pwm:000	t:         10	pdc:25	t_high:         10	t_low:         20	duty:33
              211800	sw:0000	pwm:001	t:         10	pdc:25	t_high:         10	t_low:         20	duty:33
              211830	sw:0000	pwm:001	t:         10	pdc: 0	t_high:         10	t_low:         20	duty:33
              212000	sw:0000	pwm:000	t:         10	pdc: 0	t_high:         10	t_low:         20	duty:33
              212400	sw:0000	pwm:001	t:         10	pdc: 0	t_high:         10	t_low:         20	duty:33
              212430	sw:0000	pwm:001	t:         10	pdc:34	t_high:         10	t_low:         20	duty:33
              212600	sw:0000	pwm:000	t:         10	pdc:34	t_high:         10	t_low:         20	duty:33
              213000	sw:0000	pwm:001	t:         10	pdc:34	t_high:         10	t_low:         20	duty:33
              213200	sw:0000	pwm:000	t:         10	pdc:34	t_high:         10	t_low:         20	duty:33
              213600	sw:0000	pwm:001	t:         10	pdc:34	t_high:         10	t_low:         20	duty:33
              213800	sw:0000	pwm:000	t:         10	pdc:34	t_high:         10	t_low:         20	duty:33
              214200	sw:0000	pwm:001	t:         10	pdc:34	t_high:         10	t_low:         20	duty:33
              214400	sw:0000	pwm:000	t:         10	pdc:34	t_high:         10	t_low:         20	duty:33
              214800	sw:0000	pwm:001	t:         10	pdc:34	t_high:         10	t_low:         20	duty:33
              215000	sw:0000	pwm:000	t:         10	pdc:34	t_high:         10	t_low:         20	duty:33
              215400	sw:0000	pwm:001	t:         10	pdc:34	t_high:         10	t_low:         20	duty:33
              215600	sw:0000	pwm:000	t:         10	pdc:34	t_high:         10	t_low:         20	duty:33
              216000	sw:0100	pwm:010	t:         10	pdc:34	t_high:         10	t_low:         40	duty:20
              216200	sw:0100	pwm:000	t:         10	pdc:34	t_high:         10	t_low:         40	duty:20
              217000	sw:0100	pwm:010	t:         10	pdc:34	t_high:         10	t_low:         40	duty:20
              217030	sw:0100	pwm:010	t:         10	pdc: 0	t_high:         10	t_low:         40	duty:20
              217200	sw:0100	pwm:000	t:         10	pdc: 0	t_high:         10	t_low:         40	duty:20
              218000	sw:0100	pwm:010	t:         10	pdc: 0	t_high:         10	t_low:         40	duty:20
              218030	sw:0100	pwm:010	t:         10	pdc:20	t_high:         10	t_low:         40	duty:20
              218200	sw:0100	pwm:000	t:         10	pdc:20	t_high:         10	t_low:         40	duty:20
              219000	sw:0100	pwm:010	t:         10	pdc:20	t_high:         10	t_low:         40	duty:20
              219200	sw:0100	pwm:000	t:         10	pdc:20	t_high:         10	t_low:         40	duty:20
              220000	sw:0100	pwm:010	t:         10	pdc:20	t_high:         10	t_low:         40	duty:20
              220200	sw:0100	pwm:000	t:         10	pdc:20	t_high:         10	t_low:         40	duty:20
              221000	sw:0100	pwm:010	t:         10	pdc:20	t_high:         10	t_low:         40	duty:20
              221200	sw:0100	pwm:000	t:         10	pdc:20	t_high:         10	t_low:         40	duty:20
              222000	sw:0100	pwm:010	t:         10	pdc:20	t_high:         10	t_low:         40	duty:20
              222200	sw:0100	pwm:000	t:         10	pdc:20	t_high:         10	t_low:         40	duty:20
              223000	sw:0100	pwm:010	t:         10	pdc:20	t_high:         10	t_low:         40	duty:20
              223200	sw:0100	pwm:000	t:         10	pdc:20	t_high:         10	t_low:         40	duty:20
              224000	sw:1000	pwm:100	t:         10	pdc:20	t_high:         10	t_low:         30	duty:25
              224200	sw:1000	pwm:000	t:         10	pdc:20	t_high:         10	t_low:         30	duty:25
              224800	sw:1000	pwm:100	t:         10	pdc:20	t_high:         10	t_low:         30	duty:25
              224830	sw:1000	pwm:100	t:         10	pdc: 0	t_high:         10	t_low:         30	duty:25
              225000	sw:1000	pwm:000	t:         10	pdc: 0	t_high:         10	t_low:         30	duty:25
              225600	sw:1000	pwm:100	t:         10	pdc: 0	t_high:         10	t_low:         30	duty:25
              225630	sw:1000	pwm:100	t:         10	pdc:25	t_high:         10	t_low:         30	duty:25
              225800	sw:1000	pwm:000	t:         10	pdc:25	t_high:         10	t_low:         30	duty:25
              226400	sw:1000	pwm:100	t:         10	pdc:25	t_high:         10	t_low:         30	duty:25
              226600	sw:1000	pwm:000	t:         10	pdc:25	t_high:         10	t_low:         30	duty:25
              227200	sw:1000	pwm:100	t:         10	pdc:25	t_high:         10	t_low:         30	duty:25
              227400	sw:1000	pwm:000	t:         10	pdc:25	t_high:         10	t_low:         30	duty:25
              228000	sw:1000	pwm:100	t:         10	pdc:25	t_high:         10	t_low:         30	duty:25
              228200	sw:1000	pwm:000	t:         10	pdc:25	t_high:         10	t_low:         30	duty:25
              228800	sw:1000	pwm:100	t:         10	pdc:25	t_high:         10	t_low:         30	duty:25
