project_1/project_1.sim/sim_1/behav/xsim/simulate.log
Vivado Simulator 2018.2
Time resolution is 1 ps
Iteration           0
                   0	sw:0000	pwm:001	t:         50	pdc         0	t_high:         50	t_low:        300	duty:         14
                1000	sw:0000	pwm:000	t:         50	pdc         0	t_high:         50	t_low:        300	duty:         14
                7000	sw:0000	pwm:001	t:         50	pdc         0	t_high:         50	t_low:        300	duty:         14
                8000	sw:0000	pwm:000	t:         50	pdc         0	t_high:         50	t_low:        300	duty:         14
               14000	sw:0000	pwm:001	t:         50	pdc         0	t_high:         50	t_low:        300	duty:         14
               14030	sw:0000	pwm:001	t:         50	pdc        14	t_high:         50	t_low:        300	duty:         14
               15000	sw:0000	pwm:000	t:         50	pdc        14	t_high:         50	t_low:        300	duty:         14
               21000	sw:0000	pwm:001	t:         50	pdc        14	t_high:         50	t_low:        300	duty:         14
               22000	sw:0000	pwm:000	t:         50	pdc        14	t_high:         50	t_low:        300	duty:         14
               28000	sw:0000	pwm:001	t:         50	pdc        14	t_high:         50	t_low:        300	duty:         14
               29000	sw:0000	pwm:000	t:         50	pdc        14	t_high:         50	t_low:        300	duty:         14
               35000	sw:0000	pwm:001	t:         50	pdc        14	t_high:         50	t_low:        300	duty:         14
               36000	sw:0000	pwm:000	t:         50	pdc        14	t_high:         50	t_low:        300	duty:         14
               42000	sw:0000	pwm:001	t:         50	pdc        14	t_high:         50	t_low:        300	duty:         14
               43000	sw:0000	pwm:000	t:         50	pdc        14	t_high:         50	t_low:        300	duty:         14
               49000	sw:0000	pwm:001	t:         50	pdc        14	t_high:         50	t_low:        300	duty:         14
               50000	sw:0000	pwm:000	t:         50	pdc        14	t_high:         50	t_low:        300	duty:         14
               56000	sw:0100	pwm:010	t:         50	pdc        14	t_high:         50	t_low:        300	duty:         14
               57000	sw:0100	pwm:000	t:         50	pdc        14	t_high:         50	t_low:        300	duty:         14
               58000	sw:0100	pwm:010	t:         50	pdc        14	t_high:         50	t_low:        300	duty:         14
               58030	sw:0100	pwm:010	t:         50	pdc        50	t_high:         50	t_low:        300	duty:         14
               59000	sw:0100	pwm:000	t:         50	pdc        50	t_high:         50	t_low:        300	duty:         14
               60000	sw:0100	pwm:010	t:         50	pdc        50	t_high:         50	t_low:        300	duty:         14
               61000	sw:0100	pwm:000	t:         50	pdc        50	t_high:         50	t_low:        300	duty:         14
               62000	sw:0100	pwm:010	t:         50	pdc        50	t_high:         50	t_low:        300	duty:         14
               63000	sw:0100	pwm:000	t:         50	pdc        50	t_high:         50	t_low:        300	duty:         14
               64000	sw:0100	pwm:010	t:         50	pdc        50	t_high:         50	t_low:        300	duty:         14
               65000	sw:0100	pwm:000	t:         50	pdc        50	t_high:         50	t_low:        300	duty:         14
               66000	sw:0100	pwm:010	t:         50	pdc        50	t_high:         50	t_low:        300	duty:         14
               67000	sw:0100	pwm:000	t:         50	pdc        50	t_high:         50	t_low:        300	duty:         14
               68000	sw:0100	pwm:010	t:         50	pdc        50	t_high:         50	t_low:        300	duty:         14
               69000	sw:0100	pwm:000	t:         50	pdc        50	t_high:         50	t_low:        300	duty:         14
               70000	sw:0100	pwm:010	t:         50	pdc        50	t_high:         50	t_low:        300	duty:         14
               71000	sw:0100	pwm:000	t:         50	pdc        50	t_high:         50	t_low:        300	duty:         14
               72000	sw:1000	pwm:100	t:         50	pdc        50	t_high:         50	t_low:        300	duty:         14
               73000	sw:1000	pwm:000	t:         50	pdc        50	t_high:         50	t_low:        300	duty:         14
               74000	sw:1000	pwm:100	t:         50	pdc        50	t_high:         50	t_low:        300	duty:         14
               75000	sw:1000	pwm:000	t:         50	pdc        50	t_high:         50	t_low:        300	duty:         14
               76000	sw:1000	pwm:100	t:         50	pdc        50	t_high:         50	t_low:        300	duty:         14
               77000	sw:1000	pwm:000	t:         50	pdc        50	t_high:         50	t_low:        300	duty:         14
               78000	sw:1000	pwm:100	t:         50	pdc        50	t_high:         50	t_low:        300	duty:         14
               79000	sw:1000	pwm:000	t:         50	pdc        50	t_high:         50	t_low:        300	duty:         14
               80000	sw:1000	pwm:100	t:         50	pdc        50	t_high:         50	t_low:        300	duty:         14
               81000	sw:1000	pwm:000	t:         50	pdc        50	t_high:         50	t_low:        300	duty:         14
               82000	sw:1000	pwm:100	t:         50	pdc        50	t_high:         50	t_low:        300	duty:         14
               83000	sw:1000	pwm:000	t:         50	pdc        50	t_high:         50	t_low:        300	duty:         14
               84000	sw:1000	pwm:100	t:         50	pdc        50	t_high:         50	t_low:        300	duty:         14
               85000	sw:1000	pwm:000	t:         50	pdc        50	t_high:         50	t_low:        300	duty:         14
               86000	sw:1000	pwm:100	t:         50	pdc        50	t_high:         50	t_low:        300	duty:         14
               87000	sw:1000	pwm:000	t:         50	pdc        50	t_high:         50	t_low:        300	duty:         14
Iteration           1
               88000	sw:0000	pwm:001	t:         10	pdc        50	t_high:         10	t_low:         60	duty:         14
               88200	sw:0000	pwm:000	t:         10	pdc        50	t_high:         10	t_low:         60	duty:         14
               89400	sw:0000	pwm:001	t:         10	pdc        50	t_high:         10	t_low:         60	duty:         14
               89430	sw:0000	pwm:001	t:         10	pdc        45	t_high:         10	t_low:         60	duty:         14
               89600	sw:0000	pwm:000	t:         10	pdc        45	t_high:         10	t_low:         60	duty:         14
               90800	sw:0000	pwm:001	t:         10	pdc        45	t_high:         10	t_low:         60	duty:         14
               90830	sw:0000	pwm:001	t:         10	pdc        14	t_high:         10	t_low:         60	duty:         14
               91000	sw:0000	pwm:000	t:         10	pdc        14	t_high:         10	t_low:         60	duty:         14
               92200	sw:0000	pwm:001	t:         10	pdc        14	t_high:         10	t_low:         60	duty:         14
               92400	sw:0000	pwm:000	t:         10	pdc        14	t_high:         10	t_low:         60	duty:         14
               93600	sw:0000	pwm:001	t:         10	pdc        14	t_high:         10	t_low:         60	duty:         14
               93800	sw:0000	pwm:000	t:         10	pdc        14	t_high:         10	t_low:         60	duty:         14
               95000	sw:0000	pwm:001	t:         10	pdc        14	t_high:         10	t_low:         60	duty:         14
               95200	sw:0000	pwm:000	t:         10	pdc        14	t_high:         10	t_low:         60	duty:         14
               96400	sw:0000	pwm:001	t:         10	pdc        14	t_high:         10	t_low:         60	duty:         14
               96600	sw:0000	pwm:000	t:         10	pdc        14	t_high:         10	t_low:         60	duty:         14
               97800	sw:0000	pwm:001	t:         10	pdc        14	t_high:         10	t_low:         60	duty:         14
               98000	sw:0000	pwm:000	t:         10	pdc        14	t_high:         10	t_low:         60	duty:         14
               99200	sw:0100	pwm:010	t:         10	pdc        14	t_high:         10	t_low:         60	duty:         14
               99400	sw:0100	pwm:000	t:         10	pdc        14	t_high:         10	t_low:         60	duty:         14
               99600	sw:0100	pwm:010	t:         10	pdc        14	t_high:         10	t_low:         60	duty:         14
               99630	sw:0100	pwm:010	t:         10	pdc        50	t_high:         10	t_low:         60	duty:         14
               99800	sw:0100	pwm:000	t:         10	pdc        50	t_high:         10	t_low:         60	duty:         14
              100000	sw:0100	pwm:010	t:         10	pdc        50	t_high:         10	t_low:         60	duty:         14
              100200	sw:0100	pwm:000	t:         10	pdc        50	t_high:         10	t_low:         60	duty:         14
              100400	sw:0100	pwm:010	t:         10	pdc        50	t_high:         10	t_low:         60	duty:         14
              100600	sw:0100	pwm:000	t:         10	pdc        50	t_high:         10	t_low:         60	duty:         14
              100800	sw:0100	pwm:010	t:         10	pdc        50	t_high:         10	t_low:         60	duty:         14
              101000	sw:0100	pwm:000	t:         10	pdc        50	t_high:         10	t_low:         60	duty:         14
              101200	sw:0100	pwm:010	t:         10	pdc        50	t_high:         10	t_low:         60	duty:         14
              101400	sw:0100	pwm:000	t:         10	pdc        50	t_high:         10	t_low:         60	duty:         14
              101600	sw:0100	pwm:010	t:         10	pdc        50	t_high:         10	t_low:         60	duty:         14
              101800	sw:0100	pwm:000	t:         10	pdc        50	t_high:         10	t_low:         60	duty:         14
              102000	sw:0100	pwm:010	t:         10	pdc        50	t_high:         10	t_low:         60	duty:         14
              102200	sw:0100	pwm:000	t:         10	pdc        50	t_high:         10	t_low:         60	duty:         14
              102400	sw:1000	pwm:100	t:         10	pdc        50	t_high:         10	t_low:         60	duty:         14
              102600	sw:1000	pwm:000	t:         10	pdc        50	t_high:         10	t_low:         60	duty:         14
              102800	sw:1000	pwm:100	t:         10	pdc        50	t_high:         10	t_low:         60	duty:         14
              103000	sw:1000	pwm:000	t:         10	pdc        50	t_high:         10	t_low:         60	duty:         14
              103200	sw:1000	pwm:100	t:         10	pdc        50	t_high:         10	t_low:         60	duty:         14
              103400	sw:1000	pwm:000	t:         10	pdc        50	t_high:         10	t_low:         60	duty:         14
              103600	sw:1000	pwm:100	t:         10	pdc        50	t_high:         10	t_low:         60	duty:         14
              103800	sw:1000	pwm:000	t:         10	pdc        50	t_high:         10	t_low:         60	duty:         14
              104000	sw:1000	pwm:100	t:         10	pdc        50	t_high:         10	t_low:         60	duty:         14
              104200	sw:1000	pwm:000	t:         10	pdc        50	t_high:         10	t_low:         60	duty:         14
              104400	sw:1000	pwm:100	t:         10	pdc        50	t_high:         10	t_low:         60	duty:         14
              104600	sw:1000	pwm:000	t:         10	pdc        50	t_high:         10	t_low:         60	duty:         14
              104800	sw:1000	pwm:100	t:         10	pdc        50	t_high:         10	t_low:         60	duty:         14
              105000	sw:1000	pwm:000	t:         10	pdc        50	t_high:         10	t_low:         60	duty:         14
              105200	sw:1000	pwm:100	t:         10	pdc        50	t_high:         10	t_low:         60	duty:         14
              105400	sw:1000	pwm:000	t:         10	pdc        50	t_high:         10	t_low:         60	duty:         14
Iteration           2
              105600	sw:0000	pwm:001	t:         20	pdc        50	t_high:         20	t_low:        120	duty:         14
              106000	sw:0000	pwm:000	t:         20	pdc        50	t_high:         20	t_low:        120	duty:         14
              108400	sw:0000	pwm:001	t:         20	pdc        50	t_high:         20	t_low:        120	duty:         14
              108430	sw:0000	pwm:001	t:         20	pdc         7	t_high:         20	t_low:        120	duty:         14
              108800	sw:0000	pwm:000	t:         20	pdc         7	t_high:         20	t_low:        120	duty:         14
              111200	sw:0000	pwm:001	t:         20	pdc         7	t_high:         20	t_low:        120	duty:         14
              111230	sw:0000	pwm:001	t:         20	pdc        14	t_high:         20	t_low:        120	duty:         14
              111600	sw:0000	pwm:000	t:         20	pdc        14	t_high:         20	t_low:        120	duty:         14
              114000	sw:0000	pwm:001	t:         20	pdc        14	t_high:         20	t_low:        120	duty:         14
              114400	sw:0000	pwm:000	t:         20	pdc        14	t_high:         20	t_low:        120	duty:         14
              116800	sw:0000	pwm:001	t:         20	pdc        14	t_high:         20	t_low:        120	duty:         14
              117200	sw:0000	pwm:000	t:         20	pdc        14	t_high:         20	t_low:        120	duty:         14
              119600	sw:0000	pwm:001	t:         20	pdc        14	t_high:         20	t_low:        120	duty:         14
              120000	sw:0000	pwm:000	t:         20	pdc        14	t_high:         20	t_low:        120	duty:         14
              122400	sw:0000	pwm:001	t:         20	pdc        14	t_high:         20	t_low:        120	duty:         14
              122800	sw:0000	pwm:000	t:         20	pdc        14	t_high:         20	t_low:        120	duty:         14
              125200	sw:0000	pwm:001	t:         20	pdc        14	t_high:         20	t_low:        120	duty:         14
              125600	sw:0000	pwm:000	t:         20	pdc        14	t_high:         20	t_low:        120	duty:         14
              128000	sw:0100	pwm:010	t:         20	pdc        14	t_high:         20	t_low:        120	duty:         14
              128400	sw:0100	pwm:000	t:         20	pdc        14	t_high:         20	t_low:        120	duty:         14
              128800	sw:0100	pwm:010	t:         20	pdc        14	t_high:         20	t_low:        120	duty:         14
              128830	sw:0100	pwm:010	t:         20	pdc        50	t_high:         20	t_low:        120	duty:         14
              129200	sw:0100	pwm:000	t:         20	pdc        50	t_high:         20	t_low:        120	duty:         14
              129600	sw:0100	pwm:010	t:         20	pdc        50	t_high:         20	t_low:        120	duty:         14
              130000	sw:0100	pwm:000	t:         20	pdc        50	t_high:         20	t_low:        120	duty:         14
              130400	sw:0100	pwm:010	t:         20	pdc        50	t_high:         20	t_low:        120	duty:         14
              130800	sw:0100	pwm:000	t:         20	pdc        50	t_high:         20	t_low:        120	duty:         14
              131200	sw:0100	pwm:010	t:         20	pdc        50	t_high:         20	t_low:        120	duty:         14
              131600	sw:0100	pwm:000	t:         20	pdc        50	t_high:         20	t_low:        120	duty:         14
              132000	sw:0100	pwm:010	t:         20	pdc        50	t_high:         20	t_low:        120	duty:         14
              132400	sw:0100	pwm:000	t:         20	pdc        50	t_high:         20	t_low:        120	duty:         14
              132800	sw:0100	pwm:010	t:         20	pdc        50	t_high:         20	t_low:        120	duty:         14
              133200	sw:0100	pwm:000	t:         20	pdc        50	t_high:         20	t_low:        120	duty:         14
              133600	sw:0100	pwm:010	t:         20	pdc        50	t_high:         20	t_low:        120	duty:         14
              134000	sw:0100	pwm:000	t:         20	pdc        50	t_high:         20	t_low:        120	duty:         14
              134400	sw:1000	pwm:100	t:         20	pdc        50	t_high:         20	t_low:        120	duty:         14
              134800	sw:1000	pwm:000	t:         20	pdc        50	t_high:         20	t_low:        120	duty:         14
              135200	sw:1000	pwm:100	t:         20	pdc        50	t_high:         20	t_low:        120	duty:         14
              135600	sw:1000	pwm:000	t:         20	pdc        50	t_high:         20	t_low:        120	duty:         14
              136000	sw:1000	pwm:100	t:         20	pdc        50	t_high:         20	t_low:        120	duty:         14
              136400	sw:1000	pwm:000	t:         20	pdc        50	t_high:         20	t_low:        120	duty:         14
              136800	sw:1000	pwm:100	t:         20	pdc        50	t_high:         20	t_low:        120	duty:         14
              137200	sw:1000	pwm:000	t:         20	pdc        50	t_high:         20	t_low:        120	duty:         14
              137600	sw:1000	pwm:100	t:         20	pdc        50	t_high:         20	t_low:        120	duty:         14
              138000	sw:1000	pwm:000	t:         20	pdc        50	t_high:         20	t_low:        120	duty:         14
              138400	sw:1000	pwm:100	t:         20	pdc        50	t_high:         20	t_low:        120	duty:         14
              138800	sw:1000	pwm:000	t:         20	pdc        50	t_high:         20	t_low:        120	duty:         14
              139200	sw:1000	pwm:100	t:         20	pdc        50	t_high:         20	t_low:        120	duty:         14
              139600	sw:1000	pwm:000	t:         20	pdc        50	t_high:         20	t_low:        120	duty:         14
              140000	sw:1000	pwm:100	t:         20	pdc        50	t_high:         20	t_low:        120	duty:         14
              140400	sw:1000	pwm:000	t:         20	pdc        50	t_high:         20	t_low:        120	duty:         14
Iteration           3
              140800	sw:0000	pwm:001	t:         10	pdc        50	t_high:         10	t_low:         60	duty:         14
              141000	sw:0000	pwm:000	t:         10	pdc        50	t_high:         10	t_low:         60	duty:         14
              142200	sw:0000	pwm:001	t:         10	pdc        50	t_high:         10	t_low:         60	duty:         14
              142230	sw:0000	pwm:001	t:         10	pdc        25	t_high:         10	t_low:         60	duty:         14
              142400	sw:0000	pwm:000	t:         10	pdc        25	t_high:         10	t_low:         60	duty:         14
              143600	sw:0000	pwm:001	t:         10	pdc        25	t_high:         10	t_low:         60	duty:         14
              143630	sw:0000	pwm:001	t:         10	pdc        14	t_high:         10	t_low:         60	duty:         14
              143800	sw:0000	pwm:000	t:         10	pdc        14	t_high:         10	t_low:         60	duty:         14
              145000	sw:0000	pwm:001	t:         10	pdc        14	t_high:         10	t_low:         60	duty:         14
              145200	sw:0000	pwm:000	t:         10	pdc        14	t_high:         10	t_low:         60	duty:         14
              146400	sw:0000	pwm:001	t:         10	pdc        14	t_high:         10	t_low:         60	duty:         14
              146600	sw:0000	pwm:000	t:         10	pdc        14	t_high:         10	t_low:         60	duty:         14
              147800	sw:0000	pwm:001	t:         10	pdc        14	t_high:         10	t_low:         60	duty:         14
              148000	sw:0000	pwm:000	t:         10	pdc        14	t_high:         10	t_low:         60	duty:         14
              149200	sw:0000	pwm:001	t:         10	pdc        14	t_high:         10	t_low:         60	duty:         14
              149400	sw:0000	pwm:000	t:         10	pdc        14	t_high:         10	t_low:         60	duty:         14
              150600	sw:0000	pwm:001	t:         10	pdc        14	t_high:         10	t_low:         60	duty:         14
              150800	sw:0000	pwm:000	t:         10	pdc        14	t_high:         10	t_low:         60	duty:         14
              152000	sw:0100	pwm:010	t:         10	pdc        14	t_high:         10	t_low:         60	duty:         14
              152200	sw:0100	pwm:000	t:         10	pdc        14	t_high:         10	t_low:         60	duty:         14
              152400	sw:0100	pwm:010	t:         10	pdc        14	t_high:         10	t_low:         60	duty:         14
              152430	sw:0100	pwm:010	t:         10	pdc        50	t_high:         10	t_low:         60	duty:         14
              152600	sw:0100	pwm:000	t:         10	pdc        50	t_high:         10	t_low:         60	duty:         14
              152800	sw:0100	pwm:010	t:         10	pdc        50	t_high:         10	t_low:         60	duty:         14
              153000	sw:0100	pwm:000	t:         10	pdc        50	t_high:         10	t_low:         60	duty:         14
              153200	sw:0100	pwm:010	t:         10	pdc        50	t_high:         10	t_low:         60	duty:         14
              153400	sw:0100	pwm:000	t:         10	pdc        50	t_high:         10	t_low:         60	duty:         14
              153600	sw:0100	pwm:010	t:         10	pdc        50	t_high:         10	t_low:         60	duty:         14
              153800	sw:0100	pwm:000	t:         10	pdc        50	t_high:         10	t_low:         60	duty:         14
              154000	sw:0100	pwm:010	t:         10	pdc        50	t_high:         10	t_low:         60	duty:         14
              154200	sw:0100	pwm:000	t:         10	pdc        50	t_high:         10	t_low:         60	duty:         14
              154400	sw:0100	pwm:010	t:         10	pdc        50	t_high:         10	t_low:         60	duty:         14
              154600	sw:0100	pwm:000	t:         10	pdc        50	t_high:         10	t_low:         60	duty:         14
              154800	sw:0100	pwm:010	t:         10	pdc        50	t_high:         10	t_low:         60	duty:         14
              155000	sw:0100	pwm:000	t:         10	pdc        50	t_high:         10	t_low:         60	duty:         14
              155200	sw:1000	pwm:100	t:         10	pdc        50	t_high:         10	t_low:         60	duty:         14
              155400	sw:1000	pwm:000	t:         10	pdc        50	t_high:         10	t_low:         60	duty:         14
              155600	sw:1000	pwm:100	t:         10	pdc        50	t_high:         10	t_low:         60	duty:         14
              155800	sw:1000	pwm:000	t:         10	pdc        50	t_high:         10	t_low:         60	duty:         14
              156000	sw:1000	pwm:100	t:         10	pdc        50	t_high:         10	t_low:         60	duty:         14
              156200	sw:1000	pwm:000	t:         10	pdc        50	t_high:         10	t_low:         60	duty:         14
              156400	sw:1000	pwm:100	t:         10	pdc        50	t_high:         10	t_low:         60	duty:         14
              156600	sw:1000	pwm:000	t:         10	pdc        50	t_high:         10	t_low:         60	duty:         14
              156800	sw:1000	pwm:100	t:         10	pdc        50	t_high:         10	t_low:         60	duty:         14
              157000	sw:1000	pwm:000	t:         10	pdc        50	t_high:         10	t_low:         60	duty:         14
              157200	sw:1000	pwm:100	t:         10	pdc        50	t_high:         10	t_low:         60	duty:         14
              157400	sw:1000	pwm:000	t:         10	pdc        50	t_high:         10	t_low:         60	duty:         14
              157600	sw:1000	pwm:100	t:         10	pdc        50	t_high:         10	t_low:         60	duty:         14
              157800	sw:1000	pwm:000	t:         10	pdc        50	t_high:         10	t_low:         60	duty:         14
              158000	sw:1000	pwm:100	t:         10	pdc        50	t_high:         10	t_low:         60	duty:         14
              158200	sw:1000	pwm:000	t:         10	pdc        50	t_high:         10	t_low:         60	duty:         14
Iteration           4
              158400	sw:0000	pwm:001	t:         20	pdc        50	t_high:         20	t_low:        120	duty:         14
              158800	sw:0000	pwm:000	t:         20	pdc        50	t_high:         20	t_low:        120	duty:         14
              161200	sw:0000	pwm:001	t:         20	pdc        50	t_high:         20	t_low:        120	duty:         14
              161230	sw:0000	pwm:001	t:         20	pdc         7	t_high:         20	t_low:        120	duty:         14
              161600	sw:0000	pwm:000	t:         20	pdc         7	t_high:         20	t_low:        120	duty:         14
              164000	sw:0000	pwm:001	t:         20	pdc         7	t_high:         20	t_low:        120	duty:         14
              164030	sw:0000	pwm:001	t:         20	pdc        14	t_high:         20	t_low:        120	duty:         14
              164400	sw:0000	pwm:000	t:         20	pdc        14	t_high:         20	t_low:        120	duty:         14
              166800	sw:0000	pwm:001	t:         20	pdc        14	t_high:         20	t_low:        120	duty:         14
              167200	sw:0000	pwm:000	t:         20	pdc        14	t_high:         20	t_low:        120	duty:         14
              169600	sw:0000	pwm:001	t:         20	pdc        14	t_high:         20	t_low:        120	duty:         14
              170000	sw:0000	pwm:000	t:         20	pdc        14	t_high:         20	t_low:        120	duty:         14
              172400	sw:0000	pwm:001	t:         20	pdc        14	t_high:         20	t_low:        120	duty:         14
              172800	sw:0000	pwm:000	t:         20	pdc        14	t_high:         20	t_low:        120	duty:         14
              175200	sw:0000	pwm:001	t:         20	pdc        14	t_high:         20	t_low:        120	duty:         14
              175600	sw:0000	pwm:000	t:         20	pdc        14	t_high:         20	t_low:        120	duty:         14
              178000	sw:0000	pwm:001	t:         20	pdc        14	t_high:         20	t_low:        120	duty:         14
              178400	sw:0000	pwm:000	t:         20	pdc        14	t_high:         20	t_low:        120	duty:         14
              180800	sw:0100	pwm:010	t:         20	pdc        14	t_high:         20	t_low:        120	duty:         14
              181200	sw:0100	pwm:000	t:         20	pdc        14	t_high:         20	t_low:        120	duty:         14
              181600	sw:0100	pwm:010	t:         20	pdc        14	t_high:         20	t_low:        120	duty:         14
              181630	sw:0100	pwm:010	t:         20	pdc        50	t_high:         20	t_low:        120	duty:         14
              182000	sw:0100	pwm:000	t:         20	pdc        50	t_high:         20	t_low:        120	duty:         14
              182400	sw:0100	pwm:010	t:         20	pdc        50	t_high:         20	t_low:        120	duty:         14
              182800	sw:0100	pwm:000	t:         20	pdc        50	t_high:         20	t_low:        120	duty:         14
              183200	sw:0100	pwm:010	t:         20	pdc        50	t_high:         20	t_low:        120	duty:         14
              183600	sw:0100	pwm:000	t:         20	pdc        50	t_high:         20	t_low:        120	duty:         14
              184000	sw:0100	pwm:010	t:         20	pdc        50	t_high:         20	t_low:        120	duty:         14
              184400	sw:0100	pwm:000	t:         20	pdc        50	t_high:         20	t_low:        120	duty:         14
              184800	sw:0100	pwm:010	t:         20	pdc        50	t_high:         20	t_low:        120	duty:         14
              185200	sw:0100	pwm:000	t:         20	pdc        50	t_high:         20	t_low:        120	duty:         14
              185600	sw:0100	pwm:010	t:         20	pdc        50	t_high:         20	t_low:        120	duty:         14
              186000	sw:0100	pwm:000	t:         20	pdc        50	t_high:         20	t_low:        120	duty:         14
              186400	sw:0100	pwm:010	t:         20	pdc        50	t_high:         20	t_low:        120	duty:         14
              186800	sw:0100	pwm:000	t:         20	pdc        50	t_high:         20	t_low:        120	duty:         14
              187200	sw:1000	pwm:100	t:         20	pdc        50	t_high:         20	t_low:        120	duty:         14
              187600	sw:1000	pwm:000	t:         20	pdc        50	t_high:         20	t_low:        120	duty:         14
              188000	sw:1000	pwm:100	t:         20	pdc        50	t_high:         20	t_low:        120	duty:         14
              188400	sw:1000	pwm:000	t:         20	pdc        50	t_high:         20	t_low:        120	duty:         14
              188800	sw:1000	pwm:100	t:         20	pdc        50	t_high:         20	t_low:        120	duty:         14
              189200	sw:1000	pwm:000	t:         20	pdc        50	t_high:         20	t_low:        120	duty:         14
              189600	sw:1000	pwm:100	t:         20	pdc        50	t_high:         20	t_low:        120	duty:         14
              190000	sw:1000	pwm:000	t:         20	pdc        50	t_high:         20	t_low:        120	duty:         14
              190400	sw:1000	pwm:100	t:         20	pdc        50	t_high:         20	t_low:        120	duty:         14
              190800	sw:1000	pwm:000	t:         20	pdc        50	t_high:         20	t_low:        120	duty:         14
              191200	sw:1000	pwm:100	t:         20	pdc        50	t_high:         20	t_low:        120	duty:         14
              191600	sw:1000	pwm:000	t:         20	pdc        50	t_high:         20	t_low:        120	duty:         14
              192000	sw:1000	pwm:100	t:         20	pdc        50	t_high:         20	t_low:        120	duty:         14
              192400	sw:1000	pwm:000	t:         20	pdc        50	t_high:         20	t_low:        120	duty:         14
              192800	sw:1000	pwm:100	t:         20	pdc        50	t_high:         20	t_low:        120	duty:         14
              193200	sw:1000	pwm:000	t:         20	pdc        50	t_high:         20	t_low:        120	duty:         14
Iteration           5
              193600	sw:0000	pwm:001	t:         10	pdc        50	t_high:         10	t_low:         60	duty:         14
              193800	sw:0000	pwm:000	t:         10	pdc        50	t_high:         10	t_low:         60	duty:         14
              195000	sw:0000	pwm:001	t:         10	pdc        50	t_high:         10	t_low:         60	duty:         14
              195030	sw:0000	pwm:001	t:         10	pdc        25	t_high:         10	t_low:         60	duty:         14
              195200	sw:0000	pwm:000	t:         10	pdc        25	t_high:         10	t_low:         60	duty:         14
              196400	sw:0000	pwm:001	t:         10	pdc        25	t_high:         10	t_low:         60	duty:         14
              196430	sw:0000	pwm:001	t:         10	pdc        14	t_high:         10	t_low:         60	duty:         14
              196600	sw:0000	pwm:000	t:         10	pdc        14	t_high:         10	t_low:         60	duty:         14
              197800	sw:0000	pwm:001	t:         10	pdc        14	t_high:         10	t_low:         60	duty:         14
              198000	sw:0000	pwm:000	t:         10	pdc        14	t_high:         10	t_low:         60	duty:         14
              199200	sw:0000	pwm:001	t:         10	pdc        14	t_high:         10	t_low:         60	duty:         14
              199400	sw:0000	pwm:000	t:         10	pdc        14	t_high:         10	t_low:         60	duty:         14
              200600	sw:0000	pwm:001	t:         10	pdc        14	t_high:         10	t_low:         60	duty:         14
              200800	sw:0000	pwm:000	t:         10	pdc        14	t_high:         10	t_low:         60	duty:         14
              202000	sw:0000	pwm:001	t:         10	pdc        14	t_high:         10	t_low:         60	duty:         14
              202200	sw:0000	pwm:000	t:         10	pdc        14	t_high:         10	t_low:         60	duty:         14
              203400	sw:0000	pwm:001	t:         10	pdc        14	t_high:         10	t_low:         60	duty:         14
              203600	sw:0000	pwm:000	t:         10	pdc        14	t_high:         10	t_low:         60	duty:         14
              204800	sw:0100	pwm:010	t:         10	pdc        14	t_high:         10	t_low:         60	duty:         14
              205000	sw:0100	pwm:000	t:         10	pdc        14	t_high:         10	t_low:         60	duty:         14
              205200	sw:0100	pwm:010	t:         10	pdc        14	t_high:         10	t_low:         60	duty:         14
              205230	sw:0100	pwm:010	t:         10	pdc        50	t_high:         10	t_low:         60	duty:         14
              205400	sw:0100	pwm:000	t:         10	pdc        50	t_high:         10	t_low:         60	duty:         14
              205600	sw:0100	pwm:010	t:         10	pdc        50	t_high:         10	t_low:         60	duty:         14
              205800	sw:0100	pwm:000	t:         10	pdc        50	t_high:         10	t_low:         60	duty:         14
              206000	sw:0100	pwm:010	t:         10	pdc        50	t_high:         10	t_low:         60	duty:         14
              206200	sw:0100	pwm:000	t:         10	pdc        50	t_high:         10	t_low:         60	duty:         14
              206400	sw:0100	pwm:010	t:         10	pdc        50	t_high:         10	t_low:         60	duty:         14
              206600	sw:0100	pwm:000	t:         10	pdc        50	t_high:         10	t_low:         60	duty:         14
              206800	sw:0100	pwm:010	t:         10	pdc        50	t_high:         10	t_low:         60	duty:         14
              207000	sw:0100	pwm:000	t:         10	pdc        50	t_high:         10	t_low:         60	duty:         14
              207200	sw:0100	pwm:010	t:         10	pdc        50	t_high:         10	t_low:         60	duty:         14
              207400	sw:0100	pwm:000	t:         10	pdc        50	t_high:         10	t_low:         60	duty:         14
              207600	sw:0100	pwm:010	t:         10	pdc        50	t_high:         10	t_low:         60	duty:         14
              207800	sw:0100	pwm:000	t:         10	pdc        50	t_high:         10	t_low:         60	duty:         14
              208000	sw:1000	pwm:100	t:         10	pdc        50	t_high:         10	t_low:         60	duty:         14
              208200	sw:1000	pwm:000	t:         10	pdc        50	t_high:         10	t_low:         60	duty:         14
              208400	sw:1000	pwm:100	t:         10	pdc        50	t_high:         10	t_low:         60	duty:         14
              208600	sw:1000	pwm:000	t:         10	pdc        50	t_high:         10	t_low:         60	duty:         14
              208800	sw:1000	pwm:100	t:         10	pdc        50	t_high:         10	t_low:         60	duty:         14
              209000	sw:1000	pwm:000	t:         10	pdc        50	t_high:         10	t_low:         60	duty:         14
              209200	sw:1000	pwm:100	t:         10	pdc        50	t_high:         10	t_low:         60	duty:         14
              209400	sw:1000	pwm:000	t:         10	pdc        50	t_high:         10	t_low:         60	duty:         14
              209600	sw:1000	pwm:100	t:         10	pdc        50	t_high:         10	t_low:         60	duty:         14
              209800	sw:1000	pwm:000	t:         10	pdc        50	t_high:         10	t_low:         60	duty:         14
              210000	sw:1000	pwm:100	t:         10	pdc        50	t_high:         10	t_low:         60	duty:         14
              210200	sw:1000	pwm:000	t:         10	pdc        50	t_high:         10	t_low:         60	duty:         14
              210400	sw:1000	pwm:100	t:         10	pdc        50	t_high:         10	t_low:         60	duty:         14
              210600	sw:1000	pwm:000	t:         10	pdc        50	t_high:         10	t_low:         60	duty:         14
              210800	sw:1000	pwm:100	t:         10	pdc        50	t_high:         10	t_low:         60	duty:         14
              211000	sw:1000	pwm:000	t:         10	pdc        50	t_high:         10	t_low:         60	duty:         14
Iteration           6
              211200	sw:0000	pwm:001	t:         50	pdc        50	t_high:         50	t_low:        300	duty:         14
              212200	sw:0000	pwm:000	t:         50	pdc        50	t_high:         50	t_low:        300	duty:         14
              218200	sw:0000	pwm:001	t:         50	pdc        50	t_high:         50	t_low:        300	duty:         14
              218230	sw:0000	pwm:001	t:         50	pdc         3	t_high:         50	t_low:        300	duty:         14
              219200	sw:0000	pwm:000	t:         50	pdc         3	t_high:         50	t_low:        300	duty:         14
              225200	sw:0000	pwm:001	t:         50	pdc         3	t_high:         50	t_low:        300	duty:         14
              225230	sw:0000	pwm:001	t:         50	pdc        14	t_high:         50	t_low:        300	duty:         14
              226200	sw:0000	pwm:000	t:         50	pdc        14	t_high:         50	t_low:        300	duty:         14
              232200	sw:0000	pwm:001	t:         50	pdc        14	t_high:         50	t_low:        300	duty:         14
              233200	sw:0000	pwm:000	t:         50	pdc        14	t_high:         50	t_low:        300	duty:         14
              239200	sw:0000	pwm:001	t:         50	pdc        14	t_high:         50	t_low:        300	duty:         14
