project_1/project_1.sim/sim_1/behav/xsim/simulate.log
Vivado Simulator 2018.2
Time resolution is 1 ps
Iteration           0
                   0	sw:0000	pwm:001	t:         50	pdc:Z	t_high:         50	t_low:        100	duty:33
                1000	sw:0000	pwm:000	t:         50	pdc:Z	t_high:         50	t_low:        100	duty:33
                3000	sw:0000	pwm:001	t:         50	pdc:Z	t_high:         50	t_low:        100	duty:33
                4000	sw:0000	pwm:000	t:         50	pdc:Z	t_high:         50	t_low:        100	duty:33
                6000	sw:0000	pwm:001	t:         50	pdc:Z	t_high:         50	t_low:        100	duty:33
                6030	sw:0000	pwm:001	t:         50	pdc:Z	t_high:         50	t_low:        100	duty:33
                7000	sw:0000	pwm:000	t:         50	pdc:Z	t_high:         50	t_low:        100	duty:33
                9000	sw:0000	pwm:001	t:         50	pdc:Z	t_high:         50	t_low:        100	duty:33
               10000	sw:0000	pwm:000	t:         50	pdc:Z	t_high:         50	t_low:        100	duty:33
               12000	sw:0000	pwm:001	t:         50	pdc:Z	t_high:         50	t_low:        100	duty:33
               13000	sw:0000	pwm:000	t:         50	pdc:Z	t_high:         50	t_low:        100	duty:33
               15000	sw:0000	pwm:001	t:         50	pdc:Z	t_high:         50	t_low:        100	duty:33
               16000	sw:0000	pwm:000	t:         50	pdc:Z	t_high:         50	t_low:        100	duty:33
               18000	sw:0000	pwm:001	t:         50	pdc:Z	t_high:         50	t_low:        100	duty:33
               19000	sw:0000	pwm:000	t:         50	pdc:Z	t_high:         50	t_low:        100	duty:33
               21000	sw:0000	pwm:001	t:         50	pdc:Z	t_high:         50	t_low:        100	duty:33
               22000	sw:0000	pwm:000	t:         50	pdc:Z	t_high:         50	t_low:        100	duty:33
               24000	sw:0100	pwm:010	t:         50	pdc:Z	t_high:         50	t_low:        200	duty:19
               25000	sw:0100	pwm:000	t:         50	pdc:Z	t_high:         50	t_low:        200	duty:19
               29000	sw:0100	pwm:010	t:         50	pdc:Z	t_high:         50	t_low:        200	duty:19
               29030	sw:0100	pwm:010	t:         50	pdc:Z	t_high:         50	t_low:        200	duty:19
               30000	sw:0100	pwm:000	t:         50	pdc:Z	t_high:         50	t_low:        200	duty:19
               34000	sw:0100	pwm:010	t:         50	pdc:Z	t_high:         50	t_low:        200	duty:19
               34030	sw:0100	pwm:010	t:         50	pdc:Z	t_high:         50	t_low:        200	duty:19
               35000	sw:0100	pwm:000	t:         50	pdc:Z	t_high:         50	t_low:        200	duty:19
               39000	sw:0100	pwm:010	t:         50	pdc:Z	t_high:         50	t_low:        200	duty:19
               40000	sw:0100	pwm:000	t:         50	pdc:Z	t_high:         50	t_low:        200	duty:19
               44000	sw:0100	pwm:010	t:         50	pdc:Z	t_high:         50	t_low:        200	duty:19
               45000	sw:0100	pwm:000	t:         50	pdc:Z	t_high:         50	t_low:        200	duty:19
               49000	sw:0100	pwm:010	t:         50	pdc:Z	t_high:         50	t_low:        200	duty:19
               50000	sw:0100	pwm:000	t:         50	pdc:Z	t_high:         50	t_low:        200	duty:19
               54000	sw:0100	pwm:010	t:         50	pdc:Z	t_high:         50	t_low:        200	duty:19
               55000	sw:0100	pwm:000	t:         50	pdc:Z	t_high:         50	t_low:        200	duty:19
               59000	sw:0100	pwm:010	t:         50	pdc:Z	t_high:         50	t_low:        200	duty:19
               60000	sw:0100	pwm:000	t:         50	pdc:Z	t_high:         50	t_low:        200	duty:19
               64000	sw:1000	pwm:100	t:         50	pdc:Z	t_high:         50	t_low:        150	duty:24
               65000	sw:1000	pwm:000	t:         50	pdc:Z	t_high:         50	t_low:        150	duty:24
               68000	sw:1000	pwm:100	t:         50	pdc:Z	t_high:         50	t_low:        150	duty:24
               68030	sw:1000	pwm:100	t:         50	pdc:Z	t_high:         50	t_low:        150	duty:24
               69000	sw:1000	pwm:000	t:         50	pdc:Z	t_high:         50	t_low:        150	duty:24
               72000	sw:1000	pwm:100	t:         50	pdc:Z	t_high:         50	t_low:        150	duty:24
               72030	sw:1000	pwm:100	t:         50	pdc:Z	t_high:         50	t_low:        150	duty:24
               73000	sw:1000	pwm:000	t:         50	pdc:Z	t_high:         50	t_low:        150	duty:24
               76000	sw:1000	pwm:100	t:         50	pdc:Z	t_high:         50	t_low:        150	duty:24
               77000	sw:1000	pwm:000	t:         50	pdc:Z	t_high:         50	t_low:        150	duty:24
               80000	sw:1000	pwm:100	t:         50	pdc:Z	t_high:         50	t_low:        150	duty:24
               81000	sw:1000	pwm:000	t:         50	pdc:Z	t_high:         50	t_low:        150	duty:24
               84000	sw:1000	pwm:100	t:         50	pdc:Z	t_high:         50	t_low:        150	duty:24
               85000	sw:1000	pwm:000	t:         50	pdc:Z	t_high:         50	t_low:        150	duty:24
               88000	sw:1000	pwm:100	t:         50	pdc:Z	t_high:         50	t_low:        150	duty:24
               89000	sw:1000	pwm:000	t:         50	pdc:Z	t_high:         50	t_low:        150	duty:24
               92000	sw:1000	pwm:100	t:         50	pdc:Z	t_high:         50	t_low:        150	duty:24
               93000	sw:1000	pwm:000	t:         50	pdc:Z	t_high:         50	t_low:        150	duty:24
Iteration           1
               96000	sw:0000	pwm:001	t:         10	pdc:Z	t_high:         10	t_low:         20	duty:33
               96200	sw:0000	pwm:000	t:         10	pdc:Z	t_high:         10	t_low:         20	duty:33
               96600	sw:0000	pwm:001	t:         10	pdc:Z	t_high:         10	t_low:         20	duty:33
               96630	sw:0000	pwm:001	t:         10	pdc:Z	t_high:         10	t_low:         20	duty:33
               96800	sw:0000	pwm:000	t:         10	pdc:Z	t_high:         10	t_low:         20	duty:33
               97200	sw:0000	pwm:001	t:         10	pdc:Z	t_high:         10	t_low:         20	duty:33
               97230	sw:0000	pwm:001	t:         10	pdc:Z	t_high:         10	t_low:         20	duty:33
               97400	sw:0000	pwm:000	t:         10	pdc:Z	t_high:         10	t_low:         20	duty:33
               97800	sw:0000	pwm:001	t:         10	pdc:Z	t_high:         10	t_low:         20	duty:33
               98000	sw:0000	pwm:000	t:         10	pdc:Z	t_high:         10	t_low:         20	duty:33
               98400	sw:0000	pwm:001	t:         10	pdc:Z	t_high:         10	t_low:         20	duty:33
               98600	sw:0000	pwm:000	t:         10	pdc:Z	t_high:         10	t_low:         20	duty:33
               99000	sw:0000	pwm:001	t:         10	pdc:Z	t_high:         10	t_low:         20	duty:33
               99200	sw:0000	pwm:000	t:         10	pdc:Z	t_high:         10	t_low:         20	duty:33
               99600	sw:0000	pwm:001	t:         10	pdc:Z	t_high:         10	t_low:         20	duty:33
               99800	sw:0000	pwm:000	t:         10	pdc:Z	t_high:         10	t_low:         20	duty:33
              100200	sw:0000	pwm:001	t:         10	pdc:Z	t_high:         10	t_low:         20	duty:33
              100400	sw:0000	pwm:000	t:         10	pdc:Z	t_high:         10	t_low:         20	duty:33
              100800	sw:0100	pwm:010	t:         10	pdc:Z	t_high:         10	t_low:         40	duty:19
              101000	sw:0100	pwm:000	t:         10	pdc:Z	t_high:         10	t_low:         40	duty:19
              101800	sw:0100	pwm:010	t:         10	pdc:Z	t_high:         10	t_low:         40	duty:19
              101830	sw:0100	pwm:010	t:         10	pdc:Z	t_high:         10	t_low:         40	duty:19
              102000	sw:0100	pwm:000	t:         10	pdc:Z	t_high:         10	t_low:         40	duty:19
              102800	sw:0100	pwm:010	t:         10	pdc:Z	t_high:         10	t_low:         40	duty:19
              102830	sw:0100	pwm:010	t:         10	pdc:Z	t_high:         10	t_low:         40	duty:19
              103000	sw:0100	pwm:000	t:         10	pdc:Z	t_high:         10	t_low:         40	duty:19
              103800	sw:0100	pwm:010	t:         10	pdc:Z	t_high:         10	t_low:         40	duty:19
              104000	sw:0100	pwm:000	t:         10	pdc:Z	t_high:         10	t_low:         40	duty:19
              104800	sw:0100	pwm:010	t:         10	pdc:Z	t_high:         10	t_low:         40	duty:19
              105000	sw:0100	pwm:000	t:         10	pdc:Z	t_high:         10	t_low:         40	duty:19
              105800	sw:0100	pwm:010	t:         10	pdc:Z	t_high:         10	t_low:         40	duty:19
              106000	sw:0100	pwm:000	t:         10	pdc:Z	t_high:         10	t_low:         40	duty:19
              106800	sw:0100	pwm:010	t:         10	pdc:Z	t_high:         10	t_low:         40	duty:19
              107000	sw:0100	pwm:000	t:         10	pdc:Z	t_high:         10	t_low:         40	duty:19
              107800	sw:0100	pwm:010	t:         10	pdc:Z	t_high:         10	t_low:         40	duty:19
              108000	sw:0100	pwm:000	t:         10	pdc:Z	t_high:         10	t_low:         40	duty:19
              108800	sw:1000	pwm:100	t:         10	pdc:Z	t_high:         10	t_low:         30	duty:24
              109000	sw:1000	pwm:000	t:         10	pdc:Z	t_high:         10	t_low:         30	duty:24
              109600	sw:1000	pwm:100	t:         10	pdc:Z	t_high:         10	t_low:         30	duty:24
              109630	sw:1000	pwm:100	t:         10	pdc:Z	t_high:         10	t_low:         30	duty:24
              109800	sw:1000	pwm:000	t:         10	pdc:Z	t_high:         10	t_low:         30	duty:24
              110400	sw:1000	pwm:100	t:         10	pdc:Z	t_high:         10	t_low:         30	duty:24
              110430	sw:1000	pwm:100	t:         10	pdc:Z	t_high:         10	t_low:         30	duty:24
              110600	sw:1000	pwm:000	t:         10	pdc:Z	t_high:         10	t_low:         30	duty:24
              111200	sw:1000	pwm:100	t:         10	pdc:Z	t_high:         10	t_low:         30	duty:24
              111400	sw:1000	pwm:000	t:         10	pdc:Z	t_high:         10	t_low:         30	duty:24
              112000	sw:1000	pwm:100	t:         10	pdc:Z	t_high:         10	t_low:         30	duty:24
              112200	sw:1000	pwm:000	t:         10	pdc:Z	t_high:         10	t_low:         30	duty:24
              112800	sw:1000	pwm:100	t:         10	pdc:Z	t_high:         10	t_low:         30	duty:24
              113000	sw:1000	pwm:000	t:         10	pdc:Z	t_high:         10	t_low:         30	duty:24
              113600	sw:1000	pwm:100	t:         10	pdc:Z	t_high:         10	t_low:         30	duty:24
              113800	sw:1000	pwm:000	t:         10	pdc:Z	t_high:         10	t_low:         30	duty:24
              114400	sw:1000	pwm:100	t:         10	pdc:Z	t_high:         10	t_low:         30	duty:24
              114600	sw:1000	pwm:000	t:         10	pdc:Z	t_high:         10	t_low:         30	duty:24
Iteration           2
              115200	sw:0000	pwm:001	t:         20	pdc:Z	t_high:         20	t_low:         40	duty:33
              115600	sw:0000	pwm:000	t:         20	pdc:Z	t_high:         20	t_low:         40	duty:33
              116400	sw:0000	pwm:001	t:         20	pdc:Z	t_high:         20	t_low:         40	duty:33
              116430	sw:0000	pwm:001	t:         20	pdc:Z	t_high:         20	t_low:         40	duty:33
              116800	sw:0000	pwm:000	t:         20	pdc:Z	t_high:         20	t_low:         40	duty:33
              117600	sw:0000	pwm:001	t:         20	pdc:Z	t_high:         20	t_low:         40	duty:33
              117630	sw:0000	pwm:001	t:         20	pdc:Z	t_high:         20	t_low:         40	duty:33
              118000	sw:0000	pwm:000	t:         20	pdc:Z	t_high:         20	t_low:         40	duty:33
              118800	sw:0000	pwm:001	t:         20	pdc:Z	t_high:         20	t_low:         40	duty:33
              119200	sw:0000	pwm:000	t:         20	pdc:Z	t_high:         20	t_low:         40	duty:33
              120000	sw:0000	pwm:001	t:         20	pdc:Z	t_high:         20	t_low:         40	duty:33
              120400	sw:0000	pwm:000	t:         20	pdc:Z	t_high:         20	t_low:         40	duty:33
              121200	sw:0000	pwm:001	t:         20	pdc:Z	t_high:         20	t_low:         40	duty:33
              121600	sw:0000	pwm:000	t:         20	pdc:Z	t_high:         20	t_low:         40	duty:33
              122400	sw:0000	pwm:001	t:         20	pdc:Z	t_high:         20	t_low:         40	duty:33
              122800	sw:0000	pwm:000	t:         20	pdc:Z	t_high:         20	t_low:         40	duty:33
              123600	sw:0000	pwm:001	t:         20	pdc:Z	t_high:         20	t_low:         40	duty:33
              124000	sw:0000	pwm:000	t:         20	pdc:Z	t_high:         20	t_low:         40	duty:33
              124800	sw:0100	pwm:010	t:         20	pdc:Z	t_high:         20	t_low:         80	duty:19
              125200	sw:0100	pwm:000	t:         20	pdc:Z	t_high:         20	t_low:         80	duty:19
              126800	sw:0100	pwm:010	t:         20	pdc:Z	t_high:         20	t_low:         80	duty:19
              126830	sw:0100	pwm:010	t:         20	pdc:Z	t_high:         20	t_low:         80	duty:19
              127200	sw:0100	pwm:000	t:         20	pdc:Z	t_high:         20	t_low:         80	duty:19
              128800	sw:0100	pwm:010	t:         20	pdc:Z	t_high:         20	t_low:         80	duty:19
              128830	sw:0100	pwm:010	t:         20	pdc:Z	t_high:         20	t_low:         80	duty:19
              129200	sw:0100	pwm:000	t:         20	pdc:Z	t_high:         20	t_low:         80	duty:19
              130800	sw:0100	pwm:010	t:         20	pdc:Z	t_high:         20	t_low:         80	duty:19
              131200	sw:0100	pwm:000	t:         20	pdc:Z	t_high:         20	t_low:         80	duty:19
              132800	sw:0100	pwm:010	t:         20	pdc:Z	t_high:         20	t_low:         80	duty:19
              133200	sw:0100	pwm:000	t:         20	pdc:Z	t_high:         20	t_low:         80	duty:19
              134800	sw:0100	pwm:010	t:         20	pdc:Z	t_high:         20	t_low:         80	duty:19
              135200	sw:0100	pwm:000	t:         20	pdc:Z	t_high:         20	t_low:         80	duty:19
              136800	sw:0100	pwm:010	t:         20	pdc:Z	t_high:         20	t_low:         80	duty:19
              137200	sw:0100	pwm:000	t:         20	pdc:Z	t_high:         20	t_low:         80	duty:19
              138800	sw:0100	pwm:010	t:         20	pdc:Z	t_high:         20	t_low:         80	duty:19
              139200	sw:0100	pwm:000	t:         20	pdc:Z	t_high:         20	t_low:         80	duty:19
              140800	sw:1000	pwm:100	t:         20	pdc:Z	t_high:         20	t_low:         60	duty:24
              141200	sw:1000	pwm:000	t:         20	pdc:Z	t_high:         20	t_low:         60	duty:24
              142400	sw:1000	pwm:100	t:         20	pdc:Z	t_high:         20	t_low:         60	duty:24
              142430	sw:1000	pwm:100	t:         20	pdc:Z	t_high:         20	t_low:         60	duty:24
              142800	sw:1000	pwm:000	t:         20	pdc:Z	t_high:         20	t_low:         60	duty:24
              144000	sw:1000	pwm:100	t:         20	pdc:Z	t_high:         20	t_low:         60	duty:24
              144030	sw:1000	pwm:100	t:         20	pdc:Z	t_high:         20	t_low:         60	duty:24
              144400	sw:1000	pwm:000	t:         20	pdc:Z	t_high:         20	t_low:         60	duty:24
              145600	sw:1000	pwm:100	t:         20	pdc:Z	t_high:         20	t_low:         60	duty:24
              146000	sw:1000	pwm:000	t:         20	pdc:Z	t_high:         20	t_low:         60	duty:24
              147200	sw:1000	pwm:100	t:         20	pdc:Z	t_high:         20	t_low:         60	duty:24
              147600	sw:1000	pwm:000	t:         20	pdc:Z	t_high:         20	t_low:         60	duty:24
              148800	sw:1000	pwm:100	t:         20	pdc:Z	t_high:         20	t_low:         60	duty:24
              149200	sw:1000	pwm:000	t:         20	pdc:Z	t_high:         20	t_low:         60	duty:24
              150400	sw:1000	pwm:100	t:         20	pdc:Z	t_high:         20	t_low:         60	duty:24
              150800	sw:1000	pwm:000	t:         20	pdc:Z	t_high:         20	t_low:         60	duty:24
              152000	sw:1000	pwm:100	t:         20	pdc:Z	t_high:         20	t_low:         60	duty:24
              152400	sw:1000	pwm:000	t:         20	pdc:Z	t_high:         20	t_low:         60	duty:24
Iteration           3
              153600	sw:0000	pwm:001	t:         10	pdc:Z	t_high:         10	t_low:         20	duty:33
              153800	sw:0000	pwm:000	t:         10	pdc:Z	t_high:         10	t_low:         20	duty:33
              154200	sw:0000	pwm:001	t:         10	pdc:Z	t_high:         10	t_low:         20	duty:33
              154230	sw:0000	pwm:001	t:         10	pdc:Z	t_high:         10	t_low:         20	duty:33
              154400	sw:0000	pwm:000	t:         10	pdc:Z	t_high:         10	t_low:         20	duty:33
              154800	sw:0000	pwm:001	t:         10	pdc:Z	t_high:         10	t_low:         20	duty:33
              154830	sw:0000	pwm:001	t:         10	pdc:Z	t_high:         10	t_low:         20	duty:33
              155000	sw:0000	pwm:000	t:         10	pdc:Z	t_high:         10	t_low:         20	duty:33
              155400	sw:0000	pwm:001	t:         10	pdc:Z	t_high:         10	t_low:         20	duty:33
              155600	sw:0000	pwm:000	t:         10	pdc:Z	t_high:         10	t_low:         20	duty:33
              156000	sw:0000	pwm:001	t:         10	pdc:Z	t_high:         10	t_low:         20	duty:33
              156200	sw:0000	pwm:000	t:         10	pdc:Z	t_high:         10	t_low:         20	duty:33
              156600	sw:0000	pwm:001	t:         10	pdc:Z	t_high:         10	t_low:         20	duty:33
              156800	sw:0000	pwm:000	t:         10	pdc:Z	t_high:         10	t_low:         20	duty:33
              157200	sw:0000	pwm:001	t:         10	pdc:Z	t_high:         10	t_low:         20	duty:33
              157400	sw:0000	pwm:000	t:         10	pdc:Z	t_high:         10	t_low:         20	duty:33
              157800	sw:0000	pwm:001	t:         10	pdc:Z	t_high:         10	t_low:         20	duty:33
              158000	sw:0000	pwm:000	t:         10	pdc:Z	t_high:         10	t_low:         20	duty:33
              158400	sw:0100	pwm:010	t:         10	pdc:Z	t_high:         10	t_low:         40	duty:19
              158600	sw:0100	pwm:000	t:         10	pdc:Z	t_high:         10	t_low:         40	duty:19
              159400	sw:0100	pwm:010	t:         10	pdc:Z	t_high:         10	t_low:         40	duty:19
              159430	sw:0100	pwm:010	t:         10	pdc:Z	t_high:         10	t_low:         40	duty:19
              159600	sw:0100	pwm:000	t:         10	pdc:Z	t_high:         10	t_low:         40	duty:19
              160400	sw:0100	pwm:010	t:         10	pdc:Z	t_high:         10	t_low:         40	duty:19
              160430	sw:0100	pwm:010	t:         10	pdc:Z	t_high:         10	t_low:         40	duty:19
              160600	sw:0100	pwm:000	t:         10	pdc:Z	t_high:         10	t_low:         40	duty:19
              161400	sw:0100	pwm:010	t:         10	pdc:Z	t_high:         10	t_low:         40	duty:19
              161600	sw:0100	pwm:000	t:         10	pdc:Z	t_high:         10	t_low:         40	duty:19
              162400	sw:0100	pwm:010	t:         10	pdc:Z	t_high:         10	t_low:         40	duty:19
              162600	sw:0100	pwm:000	t:         10	pdc:Z	t_high:         10	t_low:         40	duty:19
              163400	sw:0100	pwm:010	t:         10	pdc:Z	t_high:         10	t_low:         40	duty:19
              163600	sw:0100	pwm:000	t:         10	pdc:Z	t_high:         10	t_low:         40	duty:19
              164400	sw:0100	pwm:010	t:         10	pdc:Z	t_high:         10	t_low:         40	duty:19
              164600	sw:0100	pwm:000	t:         10	pdc:Z	t_high:         10	t_low:         40	duty:19
              165400	sw:0100	pwm:010	t:         10	pdc:Z	t_high:         10	t_low:         40	duty:19
              165600	sw:0100	pwm:000	t:         10	pdc:Z	t_high:         10	t_low:         40	duty:19
              166400	sw:1000	pwm:100	t:         10	pdc:Z	t_high:         10	t_low:         30	duty:24
              166600	sw:1000	pwm:000	t:         10	pdc:Z	t_high:         10	t_low:         30	duty:24
              167200	sw:1000	pwm:100	t:         10	pdc:Z	t_high:         10	t_low:         30	duty:24
              167230	sw:1000	pwm:100	t:         10	pdc:Z	t_high:         10	t_low:         30	duty:24
              167400	sw:1000	pwm:000	t:         10	pdc:Z	t_high:         10	t_low:         30	duty:24
              168000	sw:1000	pwm:100	t:         10	pdc:Z	t_high:         10	t_low:         30	duty:24
              168030	sw:1000	pwm:100	t:         10	pdc:Z	t_high:         10	t_low:         30	duty:24
              168200	sw:1000	pwm:000	t:         10	pdc:Z	t_high:         10	t_low:         30	duty:24
              168800	sw:1000	pwm:100	t:         10	pdc:Z	t_high:         10	t_low:         30	duty:24
              169000	sw:1000	pwm:000	t:         10	pdc:Z	t_high:         10	t_low:         30	duty:24
              169600	sw:1000	pwm:100	t:         10	pdc:Z	t_high:         10	t_low:         30	duty:24
              169800	sw:1000	pwm:000	t:         10	pdc:Z	t_high:         10	t_low:         30	duty:24
              170400	sw:1000	pwm:100	t:         10	pdc:Z	t_high:         10	t_low:         30	duty:24
              170600	sw:1000	pwm:000	t:         10	pdc:Z	t_high:         10	t_low:         30	duty:24
              171200	sw:1000	pwm:100	t:         10	pdc:Z	t_high:         10	t_low:         30	duty:24
              171400	sw:1000	pwm:000	t:         10	pdc:Z	t_high:         10	t_low:         30	duty:24
              172000	sw:1000	pwm:100	t:         10	pdc:Z	t_high:         10	t_low:         30	duty:24
              172200	sw:1000	pwm:000	t:         10	pdc:Z	t_high:         10	t_low:         30	duty:24
Iteration           4
              172800	sw:0000	pwm:001	t:         20	pdc:Z	t_high:         20	t_low:         40	duty:33
              173200	sw:0000	pwm:000	t:         20	pdc:Z	t_high:         20	t_low:         40	duty:33
              174000	sw:0000	pwm:001	t:         20	pdc:Z	t_high:         20	t_low:         40	duty:33
              174030	sw:0000	pwm:001	t:         20	pdc:Z	t_high:         20	t_low:         40	duty:33
              174400	sw:0000	pwm:000	t:         20	pdc:Z	t_high:         20	t_low:         40	duty:33
              175200	sw:0000	pwm:001	t:         20	pdc:Z	t_high:         20	t_low:         40	duty:33
              175230	sw:0000	pwm:001	t:         20	pdc:Z	t_high:         20	t_low:         40	duty:33
              175600	sw:0000	pwm:000	t:         20	pdc:Z	t_high:         20	t_low:         40	duty:33
              176400	sw:0000	pwm:001	t:         20	pdc:Z	t_high:         20	t_low:         40	duty:33
              176800	sw:0000	pwm:000	t:         20	pdc:Z	t_high:         20	t_low:         40	duty:33
              177600	sw:0000	pwm:001	t:         20	pdc:Z	t_high:         20	t_low:         40	duty:33
              178000	sw:0000	pwm:000	t:         20	pdc:Z	t_high:         20	t_low:         40	duty:33
              178800	sw:0000	pwm:001	t:         20	pdc:Z	t_high:         20	t_low:         40	duty:33
              179200	sw:0000	pwm:000	t:         20	pdc:Z	t_high:         20	t_low:         40	duty:33
              180000	sw:0000	pwm:001	t:         20	pdc:Z	t_high:         20	t_low:         40	duty:33
              180400	sw:0000	pwm:000	t:         20	pdc:Z	t_high:         20	t_low:         40	duty:33
              181200	sw:0000	pwm:001	t:         20	pdc:Z	t_high:         20	t_low:         40	duty:33
              181600	sw:0000	pwm:000	t:         20	pdc:Z	t_high:         20	t_low:         40	duty:33
              182400	sw:0100	pwm:010	t:         20	pdc:Z	t_high:         20	t_low:         80	duty:19
              182800	sw:0100	pwm:000	t:         20	pdc:Z	t_high:         20	t_low:         80	duty:19
              184400	sw:0100	pwm:010	t:         20	pdc:Z	t_high:         20	t_low:         80	duty:19
              184430	sw:0100	pwm:010	t:         20	pdc:Z	t_high:         20	t_low:         80	duty:19
              184800	sw:0100	pwm:000	t:         20	pdc:Z	t_high:         20	t_low:         80	duty:19
              186400	sw:0100	pwm:010	t:         20	pdc:Z	t_high:         20	t_low:         80	duty:19
              186430	sw:0100	pwm:010	t:         20	pdc:Z	t_high:         20	t_low:         80	duty:19
              186800	sw:0100	pwm:000	t:         20	pdc:Z	t_high:         20	t_low:         80	duty:19
              188400	sw:0100	pwm:010	t:         20	pdc:Z	t_high:         20	t_low:         80	duty:19
              188800	sw:0100	pwm:000	t:         20	pdc:Z	t_high:         20	t_low:         80	duty:19
              190400	sw:0100	pwm:010	t:         20	pdc:Z	t_high:         20	t_low:         80	duty:19
              190800	sw:0100	pwm:000	t:         20	pdc:Z	t_high:         20	t_low:         80	duty:19
              192400	sw:0100	pwm:010	t:         20	pdc:Z	t_high:         20	t_low:         80	duty:19
              192800	sw:0100	pwm:000	t:         20	pdc:Z	t_high:         20	t_low:         80	duty:19
              194400	sw:0100	pwm:010	t:         20	pdc:Z	t_high:         20	t_low:         80	duty:19
              194800	sw:0100	pwm:000	t:         20	pdc:Z	t_high:         20	t_low:         80	duty:19
              196400	sw:0100	pwm:010	t:         20	pdc:Z	t_high:         20	t_low:         80	duty:19
              196800	sw:0100	pwm:000	t:         20	pdc:Z	t_high:         20	t_low:         80	duty:19
              198400	sw:1000	pwm:100	t:         20	pdc:Z	t_high:         20	t_low:         60	duty:24
              198800	sw:1000	pwm:000	t:         20	pdc:Z	t_high:         20	t_low:         60	duty:24
              200000	sw:1000	pwm:100	t:         20	pdc:Z	t_high:         20	t_low:         60	duty:24
              200030	sw:1000	pwm:100	t:         20	pdc:Z	t_high:         20	t_low:         60	duty:24
              200400	sw:1000	pwm:000	t:         20	pdc:Z	t_high:         20	t_low:         60	duty:24
              201600	sw:1000	pwm:100	t:         20	pdc:Z	t_high:         20	t_low:         60	duty:24
              201630	sw:1000	pwm:100	t:         20	pdc:Z	t_high:         20	t_low:         60	duty:24
              202000	sw:1000	pwm:000	t:         20	pdc:Z	t_high:         20	t_low:         60	duty:24
              203200	sw:1000	pwm:100	t:         20	pdc:Z	t_high:         20	t_low:         60	duty:24
              203600	sw:1000	pwm:000	t:         20	pdc:Z	t_high:         20	t_low:         60	duty:24
              204800	sw:1000	pwm:100	t:         20	pdc:Z	t_high:         20	t_low:         60	duty:24
              205200	sw:1000	pwm:000	t:         20	pdc:Z	t_high:         20	t_low:         60	duty:24
              206400	sw:1000	pwm:100	t:         20	pdc:Z	t_high:         20	t_low:         60	duty:24
              206800	sw:1000	pwm:000	t:         20	pdc:Z	t_high:         20	t_low:         60	duty:24
              208000	sw:1000	pwm:100	t:         20	pdc:Z	t_high:         20	t_low:         60	duty:24
              208400	sw:1000	pwm:000	t:         20	pdc:Z	t_high:         20	t_low:         60	duty:24
              209600	sw:1000	pwm:100	t:         20	pdc:Z	t_high:         20	t_low:         60	duty:24
              210000	sw:1000	pwm:000	t:         20	pdc:Z	t_high:         20	t_low:         60	duty:24
Iteration           5
              211200	sw:0000	pwm:001	t:         10	pdc:Z	t_high:         10	t_low:         20	duty:33
              211400	sw:0000	pwm:000	t:         10	pdc:Z	t_high:         10	t_low:         20	duty:33
              211800	sw:0000	pwm:001	t:         10	pdc:Z	t_high:         10	t_low:         20	duty:33
              211830	sw:0000	pwm:001	t:         10	pdc:Z	t_high:         10	t_low:         20	duty:33
              212000	sw:0000	pwm:000	t:         10	pdc:Z	t_high:         10	t_low:         20	duty:33
              212400	sw:0000	pwm:001	t:         10	pdc:Z	t_high:         10	t_low:         20	duty:33
              212430	sw:0000	pwm:001	t:         10	pdc:Z	t_high:         10	t_low:         20	duty:33
              212600	sw:0000	pwm:000	t:         10	pdc:Z	t_high:         10	t_low:         20	duty:33
              213000	sw:0000	pwm:001	t:         10	pdc:Z	t_high:         10	t_low:         20	duty:33
              213200	sw:0000	pwm:000	t:         10	pdc:Z	t_high:         10	t_low:         20	duty:33
              213600	sw:0000	pwm:001	t:         10	pdc:Z	t_high:         10	t_low:         20	duty:33
              213800	sw:0000	pwm:000	t:         10	pdc:Z	t_high:         10	t_low:         20	duty:33
              214200	sw:0000	pwm:001	t:         10	pdc:Z	t_high:         10	t_low:         20	duty:33
              214400	sw:0000	pwm:000	t:         10	pdc:Z	t_high:         10	t_low:         20	duty:33
              214800	sw:0000	pwm:001	t:         10	pdc:Z	t_high:         10	t_low:         20	duty:33
              215000	sw:0000	pwm:000	t:         10	pdc:Z	t_high:         10	t_low:         20	duty:33
              215400	sw:0000	pwm:001	t:         10	pdc:Z	t_high:         10	t_low:         20	duty:33
              215600	sw:0000	pwm:000	t:         10	pdc:Z	t_high:         10	t_low:         20	duty:33
              216000	sw:0100	pwm:010	t:         10	pdc:Z	t_high:         10	t_low:         40	duty:19
              216200	sw:0100	pwm:000	t:         10	pdc:Z	t_high:         10	t_low:         40	duty:19
              217000	sw:0100	pwm:010	t:         10	pdc:Z	t_high:         10	t_low:         40	duty:19
              217030	sw:0100	pwm:010	t:         10	pdc:Z	t_high:         10	t_low:         40	duty:19
              217200	sw:0100	pwm:000	t:         10	pdc:Z	t_high:         10	t_low:         40	duty:19
              218000	sw:0100	pwm:010	t:         10	pdc:Z	t_high:         10	t_low:         40	duty:19
              218030	sw:0100	pwm:010	t:         10	pdc:Z	t_high:         10	t_low:         40	duty:19
              218200	sw:0100	pwm:000	t:         10	pdc:Z	t_high:         10	t_low:         40	duty:19
              219000	sw:0100	pwm:010	t:         10	pdc:Z	t_high:         10	t_low:         40	duty:19
              219200	sw:0100	pwm:000	t:         10	pdc:Z	t_high:         10	t_low:         40	duty:19
              220000	sw:0100	pwm:010	t:         10	pdc:Z	t_high:         10	t_low:         40	duty:19
              220200	sw:0100	pwm:000	t:         10	pdc:Z	t_high:         10	t_low:         40	duty:19
              221000	sw:0100	pwm:010	t:         10	pdc:Z	t_high:         10	t_low:         40	duty:19
              221200	sw:0100	pwm:000	t:         10	pdc:Z	t_high:         10	t_low:         40	duty:19
              222000	sw:0100	pwm:010	t:         10	pdc:Z	t_high:         10	t_low:         40	duty:19
              222200	sw:0100	pwm:000	t:         10	pdc:Z	t_high:         10	t_low:         40	duty:19
              223000	sw:0100	pwm:010	t:         10	pdc:Z	t_high:         10	t_low:         40	duty:19
              223200	sw:0100	pwm:000	t:         10	pdc:Z	t_high:         10	t_low:         40	duty:19
              224000	sw:1000	pwm:100	t:         10	pdc:Z	t_high:         10	t_low:         30	duty:24
              224200	sw:1000	pwm:000	t:         10	pdc:Z	t_high:         10	t_low:         30	duty:24
              224800	sw:1000	pwm:100	t:         10	pdc:Z	t_high:         10	t_low:         30	duty:24
              224830	sw:1000	pwm:100	t:         10	pdc:Z	t_high:         10	t_low:         30	duty:24
              225000	sw:1000	pwm:000	t:         10	pdc:Z	t_high:         10	t_low:         30	duty:24
              225600	sw:1000	pwm:100	t:         10	pdc:Z	t_high:         10	t_low:         30	duty:24
              225630	sw:1000	pwm:100	t:         10	pdc:Z	t_high:         10	t_low:         30	duty:24
              225800	sw:1000	pwm:000	t:         10	pdc:Z	t_high:         10	t_low:         30	duty:24
              226400	sw:1000	pwm:100	t:         10	pdc:Z	t_high:         10	t_low:         30	duty:24
              226600	sw:1000	pwm:000	t:         10	pdc:Z	t_high:         10	t_low:         30	duty:24
              227200	sw:1000	pwm:100	t:         10	pdc:Z	t_high:         10	t_low:         30	duty:24
              227400	sw:1000	pwm:000	t:         10	pdc:Z	t_high:         10	t_low:         30	duty:24
